WeightClassKg,Event,Equipment,Sex,Name,Country,State,Age,BodyweightKg,Division,Best3SquatKg,Squat4Kg,Best3BenchKg,Bench4Kg,Best3DeadliftKg,Deadlift4Kg,TotalKg,Place
48,SBD,Single-ply,F,Sarah Wellcheck,USA,OH,14,47.63,T 14-15,70,,40.5,,82.5,,193,1
56,SBD,Single-ply,F,Haley Bird,USA,OK,14,53.98,T 14-15,120,,62.5,,125,,307.5,1
60,SBD,Single-ply,F,Jan Bowers,USA,FL,22,59.87,JR,132.5,,80,,137.5,,350,1
60,SBD,Single-ply,F,Ellen Stein,USA,NY,54,58.06,M 50-54,150,155,75,,167.5,,392.5,1
60,SBD,Single-ply,F,Jan Bowers,USA,FL,22,59.87,Law/Mil,132.5,,80,,137.5,,350,1
67.5,SBD,Single-ply,F,Patty Burnett,USA,SC,45,61.69,M 45-49,105,,77.5,,115,,297.5,1
90,SBD,Single-ply,F,Anna McCloskey,USA,PA,14,83.46,T 14-15,152.5,,102.5,,195,,450,1
90,SBD,Single-ply,F,Tamara Maloun,USA,NE,18,88.9,T 18-19,145,,85,,142.5,,372.5,1
48,SBD,Raw,F,Keri Awada,USA,CO,46,46.27,RM 45-49,52.5,,37.5,,107.5,,197.5,1
56,SBD,Raw,F,Adrianne Zimmerman,USA,PA,15,52.62,RT 14-15,77.5,,47.5,,115,,240,1
56,SBD,Raw,F,Leslie Kutner,USA,FL,17,54.43,RT 16-17,102.5,105,67.5,,110,,280,1
67.5,SBD,Raw,F,Sarah Biddle,USA,IN,15,65.77,R Life,87.5,,57.5,,107.5,,252.5,1
67.5,SBD,Raw,F,Jean Gardella,USA,RI,42,67.13,RM 40-44,120,,97.5,,137.5,,355,1
67.5,SBD,Raw,F,Jean Gardella,USA,RI,42,67.13,R Open,120,,97.5,,137.5,,355,1
67.5,SBD,Raw,F,Sarah Biddle,USA,IN,15,65.77,R Open,87.5,,57.5,,107.5,,252.5,2
67.5,SBD,Raw,F,Sarah Biddle,USA,IN,15,65.77,RT 14-15,87.5,,57.5,,107.5,,252.5,1
67.5,SBD,Raw,F,Monique Dudley,USA,FL,11,61.69,RY 10-11,55,57.5,30,,77.5,82.5,162.5,1
75,SBD,Raw,F,Elaine Bolster,USA,FL,64,74.84,RLM 60-64,57.5,,35,,75,,167.5,1
75,SBD,Raw,F,Elaine Bolster,USA,FL,64,74.84,RM 60-64,57.5,,35,,75,,167.5,1
75,SBD,Raw,F,Chelsea Rebman,USA,PA,18,74.84,R Open,135,,65,,145,,345,1
75,SBD,Raw,F,Tammy Walker,USA,NC,39,73.94,R Sub,102.5,,85,,142.5,,330,1
75,SBD,Raw,F,Chelsea Rebman,USA,PA,18,74.84,RT 18-19,135,,65,,145,,345,1
82.5,SBD,Raw,F,Avis Henderson,USA,VA,56,79.38,RM 55-59,80,82.5,65.5,,125.5,,271,1
90,SBD,Raw,F,Jamie Langdon,USA,NC,31,83.01,R Life,112.5,117.5,75,,125,,312.5,1
90,SBD,Raw,F,Lucy Hawkins,USA,VA,52,85.28,R Law/Mil 50-54,42.5,,57.5,,100,102.5,200,1
90,SBD,Raw,F,Jamie Langdon,USA,NC,31,83.01,R Open,112.5,117.5,75,,125,,312.5,1
90+,SBD,Raw,F,Hannah Biddle,USA,IN,17,94.8,R Life,110,,60,,125,,295,1
90+,SBD,Raw,F,Hannah Biddle,USA,IN,17,94.8,R Open,110,,60,,125,,295,1
90+,SBD,Raw,F,Hannah Biddle,USA,IN,17,94.8,RT 16-17,110,,60,,125,,295,1
60,BD,Single-ply,F,Lynda Christopher,USA,AZ,44,57.61,LM 40-44,,,55,60,100,,155,1
60,BD,Single-ply,F,Lynda Christopher,USA,AZ,44,57.61,Life,,,55,60,100,,155,1
60,BD,Single-ply,F,Lynda Christopher,USA,AZ,44,57.61,M 40-44,,,55,60,100,,155,1
60,BD,Single-ply,F,Lynda Christopher,USA,AZ,44,57.61,Law/Mil 40-44,,,55,60,100,,155,1
60,BD,Single-ply,F,Lynda Christopher,USA,AZ,44,57.61,Law/Mil,,,55,60,100,,155,1
90,BD,Single-ply,F,Anna McCloskey,,,14,83.46,T 14-15,,,102.5,,195,,297.5,1
90,BD,Single-ply,F,Tamara Maloun,USA,NE,18,88.9,T 18-19,,,85,,142.5,,227.5,1
67.5,BD,Raw,F,Sarah Biddle,USA,IN,15,65.77,R Life,,,57.5,,107.5,,165,1
67.5,BD,Raw,F,Delores Grimes,USA,VA,34,67.13,R Life,,,50,,95,100,145,2
67.5,BD,Raw,F,Delores Grimes,USA,VA,34,67.13,R Law/Mil,,,50,,95,100,145,1
67.5,BD,Raw,F,Sarah Biddle,USA,IN,15,65.77,R Open,,,57.5,,107.5,,165,1
67.5,BD,Raw,F,Delores Grimes,USA,VA,34,67.13,R Open,,,50,,95,100,145,2
67.5,BD,Raw,F,Sarah Biddle,USA,IN,15,65.77,RT 14-15,,,57.5,,107.5,,165,1
82.5,BD,Raw,F,Avis Henderson,USA,VA,56,79.38,RM 55-59,,,65.5,,125.5,,191,1
90,BD,Raw,F,Lucy Hawkins,USA,VA,52,85.28,R Law/Mil 50-54,,,57.5,,100,102.5,157.5,1
90+,BD,Raw,F,Hannah Biddle,USA,IN,17,94.8,R Life,,,60,,125,,185,1
90+,BD,Raw,F,Hannah Biddle,USA,IN,17,94.8,R Open,,,60,,125,,185,1
90+,BD,Raw,F,Hannah Biddle,USA,IN,17,94.8,RT 16-17,,,60,,125,,185,1
60,B,Single-ply,F,Lynda Christopher,USA,AZ,44,57.61,LM 40-44,,,55,60,,,55,1
60,B,Single-ply,F,Lynda Christopher,USA,AZ,44,57.61,Life,,,55,60,,,55,1
60,B,Single-ply,F,Lynda Christopher,USA,AZ,44,57.61,M 40-44,,,55,60,,,55,1
60,B,Single-ply,F,Lynda Christopher,USA,AZ,44,57.61,Law/Mil 40-44,,,55,60,,,55,1
60,B,Single-ply,F,Lynda Christopher,USA,AZ,44,57.61,Law/Mil,,,55,60,,,55,1
90,B,Single-ply,F,Anna McCloskey,USA,PA,14,83.46,T 14-15,,,102.5,,,,102.5,1
67.5,B,Raw,F,Delores Grimes,USA,VA,34,67.13,R Life,,,50,,,,50,1
67.5,B,Raw,F,Monique Tanksley,USA,VA,40,63.05,R Law/Mil 40-44,,,52.5,,,,52.5,1
67.5,B,Raw,F,Delores Grimes,USA,VA,34,67.13,R Law/Mil,,,50,,,,50,1
67.5,B,Raw,F,June Hunte,USA,VA,44,67.13,R Law/Mil 40-44,,,50,,,,50,1
67.5,B,Raw,F,Jean Gardella,USA,RI,42,67.13,R Open,,,97.5,,,,97.5,1
67.5,B,Raw,F,Delores Grimes,USA,VA,34,67.13,R Open,,,50,,,,50,2
75,B,Raw,F,Tammy Walker,USA,NC,39,73.94,R Sub,,,85,,,,85,1
82.5,B,Raw,F,Avis Henderson,,,56,79.38,RM 55-59,,,65.5,,,,65.5,1
82.5,B,Raw,F,Tiffany Sisk,USA,SC,14,81.65,RT 14-15,,,63,,,,63,1
90,B,Raw,F,Lucy Hawkins,USA,VA,52,85.28,R Law/Mil 50-54,,,57.5,,,,57.5,1
90+,B,Raw,F,Rhonda Harris,USA,VA,42,93.44,R Law/Mil 40-44,,,67.5,,,,67.5,1
52,D,Single-ply,F,Karin Heindl,Austria,,51,50.8,M 50-54,,,,,95,,95,1
52,D,Single-ply,F,Karin Heindl,Austria,,51,50.8,Open,,,,,95,,95,1
60,D,Single-ply,F,Lynda Christopher,USA,AZ,44,57.61,LM 40-44,,,,,100,,100,1
60,D,Single-ply,F,Lynda Christopher,USA,AZ,44,57.61,Life,,,,,100,,100,1
60,D,Single-ply,F,Lynda Christopher,USA,AZ,44,57.61,M 40-44,,,,,100,,100,1
60,D,Single-ply,F,Ellen Stein,USA,NY,54,58.06,M 50-54,,,,,167.5,,167.5,1
60,D,Single-ply,F,Lynda Christopher,USA,AZ,44,57.61,Law/Mil 40-44,,,,,100,,100,1
60,D,Single-ply,F,Lynda Christopher,USA,AZ,44,57.61,Law/Mil,,,,,100,,100,1
67.5,D,Single-ply,F,Susan Sanaghan,USA,IN,53,65.32,M 50-54,,,,,130,,130,1
90,D,Single-ply,F,Anna McCloskey,USA,PA,14,83.46,T 14-15,,,,,195,,195,1
90,D,Single-ply,F,Tamara Maloun,USA,NE,18,88.9,T 18-19,,,,,142.5,,142.5,1
48,D,Raw,F,Keri Awada,USA,CO,46,46.27,RM 45-49,,,,,107.5,,107.5,1
67.5,D,Raw,F,Delores Grimes,USA,VA,34,67.13,R Life,,,,,95,100,95,1
67.5,D,Raw,F,Jean Gardella,USA,RI,42,67.13,RM 40-44,,,,,137.5,,137.5,1
67.5,D,Raw,F,Delores Grimes,USA,VA,34,67.13,R Law/Mil,,,,,95,100,95,1
67.5,D,Raw,F,Delores Grimes,USA,VA,34,67.13,R Open,,,,,95,100,95,1
67.5,D,Raw,F,Monique Dudley,USA,FL,11,61.69,RY 10-11,,,,,77.5,82.5,77.5,1
82.5,D,Raw,F,Avis Henderson,USA,VA,56,79.38,RM 55-59,,,,,125.5,,125.5,1
82.5,D,Raw,F,Tiffany Sisk,USA,SC,14,81.65,RT 14-15,,,,,112.5,,112.5,1
90+,D,Raw,F,Florence Wilson,USA,PA,13,97.98,RT 12-13,,,,,100,,100,1
52,SBD,Single-ply,M,Nathan Litowsky,USA,NJ,13,51.71,Open,112.5,,62.5,,117.5,,292.5,1
52,SBD,Single-ply,M,Nathan Litowsky,USA,NJ,13,51.71,T 12-13,112.5,,62.5,,117.5,,292.5,1
60,SBD,Single-ply,M,Nick Lenhart,USA,UT,20,59.87,JR,175,,137.5,,220,227.5,532.5,1
60,SBD,Single-ply,M,Nick Lenhart,USA,UT,20,59.87,Life,175,,137.5,,220,227.5,532.5,1
60,SBD,Single-ply,M,Andrea Grier,USA,FL,49,56.25,M 45-49,125,,112.5,,125,,362.5,1
67.5,SBD,Single-ply,M,David Edmondson,USA,UT,46,66.22,Law/Mil 45-49,235,,125,,235,,595,1
67.5,SBD,Single-ply,M,David Edmondson,USA,UT,46,66.22,Law/Mil,235,,125,,235,,595,1
67.5,SBD,Single-ply,M,Rob Wess,USA,NC,43,66.22,LM 40-44,200,,122.5,,215,,537.5,1
67.5,SBD,Single-ply,M,David Edmondson,USA,UT,46,66.22,LM 45-49,235,,125,,235,,595,1
67.5,SBD,Single-ply,M,Larry Eggleston,USA,VA,61,67.13,LM 60-64,137.5,145,87.5,,180,,405,1
67.5,SBD,Single-ply,M,David Edmondson,USA,UT,46,66.22,Life,235,,125,,235,,595,1
67.5,SBD,Single-ply,M,Rob Wess,USA,NC,43,66.22,Life,200,,122.5,,215,,537.5,2
67.5,SBD,Single-ply,M,Rob Wess,USA,NC,43,66.22,M 40-44,200,,122.5,,215,,537.5,1
67.5,SBD,Single-ply,M,David Edmondson,USA,UT,46,66.22,M 45-49,235,,125,,235,,595,1
67.5,SBD,Single-ply,M,Larry Eggleston,USA,VA,61,67.13,Law/Mil 60-64,137.5,145,87.5,,180,,405,1
67.5,SBD,Single-ply,M,David Edmondson,USA,UT,46,66.22,Open,235,,125,,235,,595,1
75,SBD,Single-ply,M,Rocky Yearwood,USA,FL,48,74.39,M 45-49,195,197.5,127.5,,240,242.5,562.5,1
75,SBD,Single-ply,M,Rickey Lee Crain,USA,OK,18,72.57,T 18-19,202.5,,100,,202.5,,505,1
82.5,SBD,Single-ply,M,Nicholas Israel,USA,FL,19,81.65,T 18-19,227.5,,165,,223.5,,616,1
90,SBD,Single-ply,M,Dave Mansfield,USA,MA,61,88.9,LM 60-64,265,,127.5,,235,,627.5,1
90,SBD,Single-ply,M,Charles Peters,USA,MA,43,86.18,M 40-44,237.5,,181,,255,,673.5,1
90,SBD,Single-ply,M,Doug Harney,USA,FL,45,88.9,M 45-49,217.5,,150,,230,,597.5,1
90,SBD,Single-ply,M,Allan Reiss,USA,FL,52,89.36,M 50-54,207.5,,155,,190,,552.5,1
90,SBD,Single-ply,M,Dave Mansfield,USA,MA,61,88.9,M 60-64,265,,127.5,,235,,627.5,1
90,SBD,Single-ply,M,Bill Remley,USA,FL,77,86.64,M 75-79,160,,125,,182.5,,467.5,1
90,SBD,Single-ply,M,Jason Bowers,USA,FL,27,86.18,Law/Mil,280,,177.5,,265,,722.5,1
90,SBD,Single-ply,M,Jason Bowers,USA,FL,27,86.18,Open,280,,177.5,,265,,722.5,1
90,SBD,Single-ply,M,Brandon Franklin,USA,WV,19,86.18,T 18-19,215,,150,,215,,580,1
100,SBD,Single-ply,M,Christopher Wichtl,USA,NC,22,99.79,JR,240,,172.5,,250,,662.5,1
100,SBD,Single-ply,M,Michael Pratt,USA,MO,34,97.07,Law/Mil,280,,182.5,,245,,707.5,1
100,SBD,Single-ply,M,Christopher Melanson,USA,MA,33,95.25,Law/Mil,250,,177.5,,220,,647.5,2
100,SBD,Single-ply,M,Keith Tillman,USA,FL,51,93.44,LM 50-54,230,,137.5,,220,,587.5,1
100,SBD,Single-ply,M,Al Williamson,USA,WI,63,97.52,LM 60-64,235,,150,,207.5,,592.5,1
100,SBD,Single-ply,M,Jason Golec,USA,CA,33,90.72,Life,255,,172.5,,237.5,,665,1
100,SBD,Single-ply,M,Christopher Melanson,USA,MA,33,95.25,Life,250,,177.5,,220,,647.5,2
100,SBD,Single-ply,M,John Richardson,USA,FL,28,92.53,Life,207.5,,165,,220,,592.5,3
100,SBD,Single-ply,M,Michael Pratt,USA,MO,34,97.07,Open,280,,182.5,,245,,707.5,1
100,SBD,Single-ply,M,Jason Golec,USA,CA,33,90.72,Open,255,,172.5,,237.5,,665,2
100,SBD,Single-ply,M,Christopher Melanson,USA,MA,33,95.25,Open,250,,177.5,,220,,647.5,3
100,SBD,Single-ply,M,Tyler Scott,USA,TN,15,93.89,T 14-15,155,,115,,167.5,,437.5,1
110,SBD,Single-ply,M,Mark Hogan,USA,CT,54,107.95,Law/Mil 50-54,227.5,,145,,225,,597.5,1
110,SBD,Single-ply,M,Damon Sansom,USA,FL,33,104.78,Law/Mil,175,,165,,210,,550,1
110,SBD,Single-ply,M,Mark Emerald,USA,MA,45,101.15,LM 45-49,210,,172.5,,235,,617.5,1
110,SBD,Single-ply,M,Rick Chavez,USA,FL,51,108.41,LM 50-54,277.5,,162.5,170,250,,690,1
110,SBD,Single-ply,M,Robert Bolster,USA,FL,61,109.77,LM 60-64,205,,115,,182.5,,502.5,1
110,SBD,Single-ply,M,Rick Chavez,USA,FL,51,108.41,Life,277.5,,162.5,170,250,,690,1
110,SBD,Single-ply,M,Mark Ferris,USA,NC,44,106.14,M 40-44,267.5,,222.5,,272.5,282.5,762.5,1
110,SBD,Single-ply,M,Mark Emerald,USA,MA,45,101.15,M 45-49,210,,172.5,,235,,617.5,1
110,SBD,Single-ply,M,Rick Chavez,USA,FL,51,108.41,M 50-54,277.5,,162.5,170,250,,690,1
110,SBD,Single-ply,M,Mark Hogan,USA,CT,54,107.95,M 50-54,227.5,,145,,225,,597.5,2
110,SBD,Single-ply,M,Robert Bolster,USA,FL,61,109.77,M 60-64,205,,115,,182.5,,502.5,1
110,SBD,Single-ply,M,Mark Ferris,USA,NC,44,106.14,Open,267.5,,222.5,,272.5,282.5,762.5,1
110,SBD,Single-ply,M,Rick Chavez,USA,FL,51,108.41,Open,277.5,,162.5,170,250,,690,2
110,SBD,Single-ply,M,Mark Emerald,USA,MA,45,101.15,Open,210,,172.5,,235,,617.5,3
125,SBD,Single-ply,M,John Buckles,USA,MA,44,115.67,Law/Mil 40-44,210,212.5,150,,182.5,,542.5,1
125,SBD,Single-ply,M,John Buckles,USA,MA,44,115.67,LM 40-44,210,212.5,150,,182.5,,542.5,1
125,SBD,Single-ply,M,Dan Driscoll,USA,MA,42,121.11,M 40-44,287.5,,197.5,,280,,765,1
125,SBD,Single-ply,M,Preston Dennis,USA,NC,30,117.48,Open,365,,235,,280,,880,1
125,SBD,Single-ply,M,Jordan Scott,USA,TN,12,123.38,T 12-13,122.5,,77.5,,137.5,,337.5,1
140,SBD,Single-ply,M,James Myers,USA,FL,41,134.72,Law/Mil 40-44,195,,187.5,,230,,612.5,1
140,SBD,Single-ply,M,Bill McDonough,USA,MO,40,132.45,M 40-44,282.5,,245,,250,,777.5,1
140,SBD,Single-ply,M,Paul Wren,USA,TN,60,130.18,M 60-64,257.5,,132.5,,230,,620,1
140,SBD,Single-ply,M,Steven Davenport,USA,NE,36,127.91,Open,342.5,,257.5,,320,,920,1
140,SBD,Single-ply,M,Bill McDonough,USA,MO,40,132.45,Open,282.5,,245,,250,,777.5,2
140+,SBD,Single-ply,M,Alan Borden,USA,TX,44,147.87,LM 40-44,227.5,,167.5,,237.5,,632.5,1
140+,SBD,Single-ply,M,Chip Martin,USA,NC,24,168.74,Life,352.5,,227.5,,272.5,,852.5,1
140+,SBD,Single-ply,M,Alan Borden,USA,TX,44,147.87,M 40-44,227.5,,167.5,,237.5,,632.5,1
140+,SBD,Single-ply,M,Bryon Dowling,USA,IA,31,174.18,Open,372.5,,322.5,,317.5,,1012.5,1
140+,SBD,Single-ply,M,Joe Jefferson,USA,OK,19,174.63,T 18-19,307.5,,167.5,,262.5,,737.5,1
30,SBD,Raw,M,Aaron Ellis,USA,NY,6,23.59,RY 6-7,41,,20,23,42.5,45.5,103.5,1
52,SBD,Raw,M,David Greeley,USA,NH,17,51.26,RT 16-17,75,,47.5,,110,,232.5,1
52,SBD,Raw,M,Dallas Swan,USA,LA,13,51.71,RT 12-13,92.5,,60,63.5,125,,277.5,1
52,SBD,Raw,M,Giovanni Dudley,USA,FL,13,51.71,RT 12-13,57.5,,42.5,,85,,185,2
56,SBD,Raw,M,Zane Walker,USA,PA,16,,R Open,125,,75,,162.5,,362.5,1
56,SBD,Raw,M,Ben Etringer,USA,NC,14,54.43,R Open,105,,72.5,,140,,317.5,2
56,SBD,Raw,M,Ben Etringer,USA,NC,14,54.43,RT 14-15,105,,72.5,,140,,317.5,1
60,SBD,Raw,M,Joey Rein,USA,CO,17,56.25,RT 16-17,145,,77.5,,155,,377.5,1
56,SBD,Raw,M,Zane Walker,USA,PA,16,,RT 16-17,125,,75,,162.5,,362.5,2
60,SBD,Raw,M,Mark Schultz,USA,WA,49,59.42,RLM 45-49,120,,90,,175,,385,1
60,SBD,Raw,M,Mark Schultz,USA,WA,49,59.42,RM 45-49,120,,90,,175,,385,1
67.5,SBD,Raw,M,Joshua Rein,USA,AK,22,63.05,R JR,145,,85,,182.5,,412.5,1
67.5,SBD,Raw,M,Larry Eggleston,USA,VA,61,67.13,RLM 60-64,137.5,145,87.5,,180,,405,1
67.5,SBD,Raw,M,Larry Eggleston,USA,VA,61,67.13,R Law/Mil 60-64,137.5,145,87.5,,180,,405,1
67.5,SBD,Raw,M,James Adair,USA,PA,18,64.41,R Open,155,,97.5,,200,,452.5,1
67.5,SBD,Raw,M,Jackson Govatos,USA,GA,15,67.13,RT 14-15,145,,121,,187.5,,453.5,1
67.5,SBD,Raw,M,Joseph Dudley,USA,FL,14,66.22,RT 14-15,100,,65,,120,,285,2
67.5,SBD,Raw,M,Andrew Bell,USA,CO,15,64.41,RT 14-15,97.5,,60,,107.5,,265,3
67.5,SBD,Raw,M,Vince Scavuzzo,USA,CO,17,66.68,RT 16-17,150,,90,,167.5,,407.5,1
67.5,SBD,Raw,M,James Adair,USA,PA,18,64.41,RT 18-19,155,,97.5,,200,,452.5,1
75,SBD,Raw,M,Robert Herbst,USA,NY,49,74.39,RLM 45-49,142.5,152.5,127.5,,192.5,,462.5,1
75,SBD,Raw,M,Johnny Gayton,USA,GA,51,74.84,RLM 50-54,150,,115,,210,,475,1
75,SBD,Raw,M,Chris DeJoy,USA,NY,29,74.84,R Life,142.5,,152.5,,187.5,,482.5,1
75,SBD,Raw,M,Robert Herbst,USA,NY,49,74.39,R Life,142.5,152.5,127.5,,192.5,,462.5,2
75,SBD,Raw,M,Rocky Yearwood,USA,FL,48,74.39,RM 45-49,195,197.5,127.5,,240,242.5,562.5,1
75,SBD,Raw,M,Robert Herbst,USA,NY,49,74.39,RM 45-49,142.5,152.5,127.5,,192.5,,462.5,2
75,SBD,Raw,M,Johnny Gayton,USA,GA,51,74.84,RM 50-54,150,,115,,210,,475,1
75,SBD,Raw,M,Johnny Gayton,USA,GA,51,74.84,R Open,150,,115,,210,,475,1
75,SBD,Raw,M,Alex Weisiger,USA,CO,14,68.95,RT 14-15,120,,57.5,,145,,322.5,1
75,SBD,Raw,M,Anthony Ellis,USA,NY,16,69.85,RT 16-17,155,,92.5,,155,,402.5,1
75,SBD,Raw,M,Bryson Elmore,USA,FL,16,72.12,RT 16-17,120,,85,,145,,350,2
82.5,SBD,Raw,M,Eli Burks,USA,MO,20,82.1,R JR,190,,150,,250,,590,1
82.5,SBD,Raw,M,Ron Garofalo,USA,CO,46,81.65,RLM 45-49,235,,160,,60,,455,1
82.5,SBD,Raw,M,Charles McDonald,USA,FL,60,79.83,RLM 60-64,145,,85,,185,,415,1
82.5,SBD,Raw,M,Don Levesque,USA,NH,75,78.47,RLM 75-79,120,,70,,185,,375,1
82.5,SBD,Raw,M,Brian Kiraly,USA,CA,27,81.19,R Life,172.5,,147.5,,250,,570,1
82.5,SBD,Raw,M,Gregory Doherty,USA,MA,33,81.65,R Life,187.5,,120,,240,,547.5,2
82.5,SBD,Raw,M,Chito Del Rosario,USA,MD,30,79.83,R Life,120,,130,,165,,415,3
82.5,SBD,Raw,M,Elliott Bell,USA,GA,41,78.02,RM 40-44,160,,110,,190,,460,1
82.5,SBD,Raw,M,Ron Garofalo,USA,CO,46,81.65,RM 45-49,235,,160,,60,,455,1
82.5,SBD,Raw,M,Michael Brady,USA,NC,57,82.1,RM 55-59,192.5,,127.5,,237.5,,557.5,1
82.5,SBD,Raw,M,Don Levesque,USA,NH,75,78.47,RM 75-79,120,,70,,185,,375,1
82.5,SBD,Raw,M,Brian Kiraly,USA,CA,27,81.19,R Law/Mil,172.5,,147.5,,250,,570,1
82.5,SBD,Raw,M,Gregory Davis,USA,FL,31,80.74,R Law/Mil,165,,165,,227.5,,557.5,2
82.5,SBD,Raw,M,Chito Del Rosario,USA,MD,30,79.83,R Law/Mil,120,,130,,165,,415,3
82.5,SBD,Raw,M,Gregory Davis,USA,FL,31,80.74,R Open,165,,165,,227.5,,557.5,1
82.5,SBD,Raw,M,Conrad Perez,USA,FL,27,80.74,R Open,177.5,,152.5,,225,,555,2
82.5,SBD,Raw,M,Gregory Doherty,USA,MA,33,81.65,R Open,187.5,,120,,240,,547.5,3
82.5,SBD,Raw,M,Ron Garofalo,USA,CO,46,81.65,R Open,235,,160,,60,,455,4
82.5,SBD,Raw,M,Cory Martin,USA,OH,21,78.47,RSO Jr,132.5,,82.5,,157.5,,372.5,1
82.5,SBD,Raw,M,Edward Woolfolk,USA,VA,36,78.93,RSO Sub,50,,37.5,,102.5,,190,1
90,SBD,Raw,M,Wayne Pennell,USA,NC,38,88,RL Sub,235,237.5,172.5,,262.5,,670,1
90,SBD,Raw,M,James van Allen,USA,NY,54,87.09,RM 50-54,215,,182.5,,238.5,,636,1
90,SBD,Raw,M,William Leedy,USA,CA,76,88,RM 75-79,137.5,,102.5,,182.5,,422.5,1
90,SBD,Raw,M,Nate Roten,USA,NC,25,88,R Open,247.5,,147.5,,262.5,,657.5,1
90,SBD,Raw,M,Travis Pardue,USA,NC,36,88.9,R Open,217.5,,147.5,,272.5,,637.5,2
90,SBD,Raw,M,James Fuller,USA,ME,35,88,R Open,170,,102.5,,227.5,,500,3
90,SBD,Raw,M,Daniel Gustafson,USA,CA,39,88,R Open,157.5,,105,,237.5,,500,4
90,SBD,Raw,M,Bob Hale,USA,OH,35,86.18,RSO Sub,120,,97.5,,147.5,,365,1
90,SBD,Raw,M,Rafael Curry,USA,VA,38,85.28,RSO Sub,60,,50,,80,,190,2
90,SBD,Raw,M,Wayne Pennell,USA,NC,38,88,R Sub,235,237.5,172.5,,262.5,,670,1
90,SBD,Raw,M,Brett Jones,USA,PA,36,88.45,R Sub,235,,135,,260,,630,2
90,SBD,Raw,M,Ray Parker,USA,FL,35,87.09,R Sub,190,,132.5,,227.5,,550,3
90,SBD,Raw,M,Blake Keller,USA,UT,19,87.09,RT 18-19,122.5,,102.5,,177.5,,402.5,1
100,SBD,Raw,M,Chad Singleton,USA,CO,22,90.26,R JR,170,,120,,240,,530,1
100,SBD,Raw,M,Gregory Policastro,USA,FL,56,95.25,R Law/Mil 55-59,175,,147.5,,182.5,,505,1
100,SBD,Raw,M,Jack Roten,USA,NC,60,95.25,RLM 60-64,220,227.5,142.5,,252.5,,615,1
100,SBD,Raw,M,James Michael,USA,NC,62,97.52,RLM 60-64,140,,107.5,,160,,407.5,2
100,SBD,Raw,M,Robert Hanington,USA,NY,33,94.8,R Life,185,,122.5,,240,,547.5,1
100,SBD,Raw,M,James Michael,USA,NC,62,97.52,R Life,140,,107.5,,160,,407.5,2
100,SBD,Raw,M,Russell Becht,USA,CT,50,99.79,RM 50-54,170,,110,,205,,485,1
100,SBD,Raw,M,Jack Roten,USA,NC,60,95.25,RM 60-64,220,227.5,142.5,,252.5,,615,1
100,SBD,Raw,M,Russell Becht,USA,CT,50,99.79,R Law/Mil 50-54,170,,110,,205,,485,1
100,SBD,Raw,M,Russ McDonnell,USA,PA,38,98.43,R Open,240,,170,,260,,670,1
100,SBD,Raw,M,James Riley,USA,PA,28,92.53,R Open,217.5,,182.5,,262.5,,662.5,2
100,SBD,Raw,M,Rafael Viego,USA,FL,27,96.62,R Open,205,,160,,267.5,,632.5,3
100,SBD,Raw,M,Robert Hanington,USA,NY,33,94.8,R Open,185,,122.5,,240,,547.5,4
100,SBD,Raw,M,Russ McDonnell,USA,PA,38,98.43,R Sub,240,,170,,260,,670,1
110,SBD,Raw,M,Wayne Andrews,USA,NH,60,102.97,R Law/Mil 60-64,45,,82.5,,182.5,,310,1
110,SBD,Raw,M,Wayne Andrews,USA,NH,60,102.97,RLM 60-64,45,,82.5,,182.5,,310,1
110,SBD,Raw,M,Randy McMillan,USA,NC,40,103.87,RM 40-44,215,,135,,217.5,,567.5,1
110,SBD,Raw,M,Wayne Andrews,USA,NH,60,102.97,R Law/Mil 60-64,45,,82.5,,182.5,,310,2
110,SBD,Raw,M,Nick Hammer,USA,FL,28,106.59,R Open,255,,195,,290,,740,1
110,SBD,Raw,M,Randy McMillan,USA,NC,40,103.87,R Open,215,,135,,217.5,,567.5,2
110,SBD,Raw,M,Peter Curry,USA,VA,35,107.05,RSO Sub,80,,40,,145,,265,1
125,SBD,Raw,M,Greg Payne,USA,HI,42,118.84,RM 40-44,272.5,,182.5,,275,,730,1
140,SBD,Raw,M,Tracy Langdon,USA,NC,42,132.45,RLM 40-44,217.5,,157.5,,242.5,,617.5,1
140,SBD,Raw,M,Tracy Langdon,USA,NC,42,132.45,RM 40-44,217.5,,157.5,,242.5,,617.5,1
140,SBD,Raw,M,Kerry Barnard,USA,VA,36,130.63,R Open,252.5,262.5,165,,275,,692.5,1
140+,SBD,Raw,M,Kirt Studevant,USA,VA,37,140.61,R Open,295,,190,,327.5,,812.5,1
140+,SBD,Raw,M,Michael DiBiase,USA,FL,16,153.31,RT 16-17,172.5,,117.5,,200,205,490,1
52,BD,Single-ply,M,Nathan Litowsky,USA,NJ,13,51.71,T 12-13,,,62.5,,117.5,,180,1
60,BD,Single-ply,M,Nick Lenhart,USA,UT,20,59.87,JR,,,137.5,,220,227.5,357.5,1
60,BD,Single-ply,M,Nick Lenhart,USA,UT,20,59.87,Life,,,137.5,,220,227.5,357.5,1
67.5,BD,Single-ply,M,John Ianno,USA,FL,18,65.32,T 18-19,,,120,,210,,330,1
75,BD,Single-ply,M,David Constantineau,USA,WI,50,73.03,M 50-54,,,145,,210,,355,1
75,BD,Single-ply,M,David Constantineau,USA,WI,50,73.03,Open,,,145,,210,,355,1
90,BD,Single-ply,M,Charles Peters,USA,MA,43,86.18,M 40-44,,,181,,255,,436,1
90,BD,Single-ply,M,Doug Harney,USA,FL,45,88.9,M 45-49,,,150,,230,,380,1
100,BD,Single-ply,M,Christopher Melanson,USA,MA,33,95.25,Law/Mil,,,177.5,,220,,397.5,1
100,BD,Single-ply,M,Jason Golec,USA,CA,33,90.72,Life,,,172.5,,237.5,,410,1
100,BD,Single-ply,M,Christopher Melanson,USA,MA,33,95.25,Life,,,177.5,,220,,397.5,2
110,BD,Single-ply,M,Mark Hogan,USA,CT,54,107.95,Law/Mil 50-54,,,145,,225,,370,1
110,BD,Single-ply,M,Damon Sansom,USA,FL,33,104.78,Law/Mil,,,165,,210,,375,1
110,BD,Single-ply,M,Mark Hogan,USA,CT,54,107.95,M 50-54,,,145,,225,,370,1
110,BD,Single-ply,M,Jack Reape,USA,LA,46,100.24,Open,,,257.5,,272.5,,530,1
125,BD,Single-ply,M,Tom Harrier,USA,FL,52,113.4,Law/Mil 50-54,,,212.5,,210,,422.5,1
125,BD,Single-ply,M,Guy Powell,USA,WI,38,124.28,Life,,,222.5,,250,,472.5,1
125,BD,Single-ply,M,Dan Driscoll,USA,MA,42,121.11,M 40-44,,,197.5,,280,,477.5,1
125,BD,Single-ply,M,Tom Harrier,USA,FL,52,113.4,M 50-54,,,212.5,,210,,422.5,1
125,BD,Single-ply,M,Guy Powell,USA,WI,38,124.28,Open,,,222.5,,250,,472.5,1
125,BD,Single-ply,M,Guy Powell,USA,WI,38,124.28,Sub,,,222.5,,250,,472.5,1
140,BD,Single-ply,M,James Myers,,,41,134.72,Law/Mil 40-44,,,187.5,,230,,417.5,1
140,BD,Single-ply,M,Zach Chirco,USA,MA,19,132.45,T 18-19,,,190,,240,,430,1
140+,BD,Single-ply,M,Alan Borden,USA,TX,44,147.87,LM 40-44,,,167.5,,237.5,,405,1
30,BD,Raw,M,Aaron Ellis,USA,NY,6,23.59,RY 6-7,,,20,23,42.5,45.5,62.5,1
52,BD,Raw,M,David Greeley,USA,NH,17,51.26,RT 16-17,,,47.5,,110,,157.5,1
56,BD,Raw,M,Ben Etringer,USA,NC,14,54.43,R Open,,,72.5,,140,,212.5,1
56,BD,Raw,M,Ben Etringer,USA,NC,14,54.43,RT 14-15,,,72.5,,140,,212.5,1
75,BD,Raw,M,Johnny Gayton,USA,GA,51,74.84,RLM 50-54,,,115,,210,,325,1
75,BD,Raw,M,Johnny Gayton,USA,GA,51,74.84,RM 50-54,,,115,,210,,325,1
75,BD,Raw,M,Johnny Gayton,USA,GA,51,74.84,R Open,,,115,,210,,325,1
75,BD,Raw,M,Anthony Ellis,USA,NY,16,69.85,RT 16-17,,,92.5,,155,,247.5,1
82.5,BD,Raw,M,Eli Burks,USA,MO,20,82.1,R JR,,,150,,250,,400,1
82.5,BD,Raw,M,Brian Kiraly,USA,CA,27,81.19,R Law/Mil,,,147.5,,250,,397.5,1
82.5,BD,Raw,M,Gregory Davis,USA,FL,31,80.74,R Law/Mil,,,165,,227.5,,392.5,2
82.5,BD,Raw,M,Brian Kiraly,USA,CA,27,81.19,R Open,,,147.5,,250,,397.5,1
82.5,BD,Raw,M,Gregory Davis,USA,FL,31,80.74,R Open,,,165,,227.5,,392.5,2
90,BD,Raw,M,Daniel Gustafson,USA,CA,39,88,R Open,,,105,,237.5,,342.5,1
90,BD,Raw,M,Brian Andrix,USA,OH,29,82.55,RSO,,,102.5,,192.5,,295,1
90,BD,Raw,M,James Gordon,USA,OH,29,83.91,RSO,,,92.5,,175,,267.5,2
90,BD,Raw,M,Ray Parker,USA,FL,35,87.09,R Sub,,,132.5,,227.5,,360,1
100,BD,Raw,M,Gregory Policastro,USA,FL,56,95.25,R Law/Mil 55-59,,,147.5,,182.5,,330,1
100,BD,Raw,M,Jack Roten,USA,NC,60,95.25,RLM 60-64,,,142.5,,252.5,,395,1
100,BD,Raw,M,Jack Roten,USA,NC,60,95.25,RM 60-64,,,142.5,,252.5,,395,1
100,BD,Raw,M,James Riley,USA,PA,28,92.53,R Open,,,182.5,,262.5,,445,1
100,BD,Raw,M,Robert Hanington,USA,NY,33,94.8,R Open,,,122.5,,240,,362.5,2
100,BD,Raw,M,Chris Wooley,USA,OH,38,95.25,RSO Sub,,,67.5,,115,,182.5,1
100,BD,Raw,M,Jeremy Brown,USA,NY,17,96.16,RT 16-17,,,172.5,,250,,422.5,1
110,BD,Raw,M,Louis Gray,USA,VA,33,107.95,R Law/Mil,,,182.5,,217.5,,400,1
110,BD,Raw,M,Matt Roten,USA,NC,27,104.78,R Open,,,142.5,,272.5,,415,1
140,BD,Raw,M,Kerry Barnard,USA,VA,36,130.63,R Open,,,165,,275,,440,1
140+,BD,Raw,M,William Umphlett,USA,VA,32,164.2,RSO,,,62.5,,60,,122.5,1
52,B,Single-ply,M,Nathan Litowsky,,,13,51.71,Open,,,62.5,,,,62.5,1
52,B,Single-ply,M,Nathan Litowsky,,,13,51.71,T 12-13,,,62.5,,,,62.5,1
60,B,Single-ply,M,Nick Lenhart,,,20,59.87,JR,,,137.5,,,,137.5,1
60,B,Single-ply,M,Nick Lenhart,,,20,59.87,Life,,,137.5,,,,137.5,1
60,B,Single-ply,M,Nick Lenhart,,,20,59.87,Open,,,137.5,,,,137.5,1
67.5,B,Single-ply,M,Chad Nelson,USA,MA,30,67.13,Open,,,120,,,,120,1
67.5,B,Single-ply,M,John Ianno,USA,FL,18,65.32,T 18-19,,,120,,,,120,1
75,B,Single-ply,M,David Constantineau,USA,WI,50,73.03,M 50-54,,,145,,,,145,1
82.5,B,Single-ply,M,Michael Bingham,USA,PA,42,79.83,Law/Mil 40-44,,,180,,,,180,1
82.5,B,Single-ply,M,Michael Bingham,USA,PA,42,79.83,Law/Mil,,,180,,,,180,1
82.5,B,Single-ply,M,Michael Bingham,USA,PA,42,79.83,LM 40-44,,,180,,,,180,1
82.5,B,Single-ply,M,Michael Bingham,USA,PA,42,79.83,Life,,,180,,,,180,1
82.5,B,Single-ply,M,Michael Bingham,USA,PA,42,79.83,M 40-44,,,180,,,,180,1
82.5,B,Single-ply,M,Michael Bingham,USA,PA,42,79.83,Open,,,180,,,,180,1
82.5,B,Single-ply,M,Nicholas Israel,USA,FL,19,81.65,T 18-19,,,165,,,,165,1
90,B,Single-ply,M,Allan Reiss,USA,FL,52,89.36,M 50-54,,,155,,,,155,1
90,B,Single-ply,M,Ted Langlais,USA,FL,63,89.36,M 60-64,,,127.5,,,,127.5,1
90,B,Single-ply,M,Bill Remley,USA,FL,77,86.64,M 75-79,,,125,,,,125,1
100,B,Single-ply,M,Pete Messina,USA,NC,45,97.98,Law/Mil 45-49,,,227.5,,,,227.5,1
100,B,Single-ply,M,Christopher Melanson,,,33,95.25,Law/Mil,,,177.5,,,,177.5,1
100,B,Single-ply,M,Pete Messina,USA,NC,45,97.98,LM 45-49,,,227.5,,,,227.5,1
100,B,Single-ply,M,Jim Parham,USA,OK,64,94.8,LM 60-64,,,170.5,,,,170.5,1
100,B,Single-ply,M,Christopher Melanson,,,33,95.25,Life,,,177.5,,,,177.5,1
100,B,Single-ply,M,Gregory Hayes,USA,FL,46,97.98,M 45-49,,,185,,,,185,1
100,B,Single-ply,M,Stephen Schwarzer,USA,FL,60,94.35,M 60-64,,,180,,,,180,1
100,B,Single-ply,M,Jim Parham,USA,OK,64,94.8,M 60-64,,,170.5,,,,170.5,2
100,B,Single-ply,M,Charles Green,USA,TN,68,97.07,M 65-69,,,137.5,,,,137.5,1
100,B,Single-ply,M,David Wooten,USA,WV,19,97.07,T 18-19,,,145,,,,145,1
110,B,Single-ply,M,Mark Hogan,,,54,107.95,Law/Mil 50-54,,,145,,,,145,1
110,B,Single-ply,M,Damon Sansom,,,33,104.78,Law/Mil,,,165,,,,165,1
110,B,Single-ply,M,Sergey Grigoryants,Turkmenistan,,36,109.77,L Sub,,,170,,,,170,1
110,B,Single-ply,M,Mark Hogan,USA,,54,107.95,M 50-54,,,145,,,,145,1
110,B,Single-ply,M,Sheldon Schultz,USA,FL,68,105.69,M 65-69,,,155,,,,155,1
110,B,Single-ply,M,Jerry Warren,USA,OK,39,103.87,Law/Mil Sub,,,127.5,152.5,,,127.5,1
110,B,Single-ply,M,Sergey Grigoryants,Turkmenistan,,36,109.77,Open,,,170,,,,170,1
110,B,Single-ply,M,Sergey Grigoryants,Turkmenistan,,36,109.77,Sub,,,170,,,,170,1
125,B,Single-ply,M,Tom Harrier,USA,FL,52,113.4,Law/Mil 50-54,,,212.5,,,,212.5,1
125,B,Single-ply,M,Tom Harrier,USA,FL,52,113.4,M 50-54,,,212.5,,,,212.5,1
125,B,Single-ply,M,Guy Powell,USA,WI,38,124.28,Sub,,,222.5,,,,222.5,1
140,B,Single-ply,M,James Myers,USA,FL,41,134.72,Law/Mil 40-44,,,187.5,,,,187.5,1
140,B,Single-ply,M,Randy James,USA,OH,47,136.53,LM 45-49,,,245,,,,245,1
140,B,Single-ply,M,Randy James,USA,OH,47,136.53,M 45-49,,,245,,,,245,1
140,B,Single-ply,M,Zach Chirco,USA,MA,19,132.45,T 18-19,,,190,,,,190,1
140+,B,Single-ply,M,Alan Borden,,,44,147.87,LM 40-44,,,167.5,,,,167.5,1
56,B,Raw,M,Ben Etringer,,,14,54.43,R Open,,,72.5,,,,72.5,1
56,B,Raw,M,Ben Etringer,,,14,54.43,RT 14-15,,,72.5,,,,72.5,1
67.5,B,Raw,M,Daryl Taylor,USA,VA,32,61.23,RSO,,,27.5,,,,27.5,1
75,B,Raw,M,Donald Taylor,USA,GA,52,73.03,RLM 50-54,,,117.5,,,,117.5,1
75,B,Raw,M,Donald Taylor,USA,GA,52,73.03,RM 50-54,,,117.5,,,,117.5,1
75,B,Raw,M,Douglas Rose,USA,VA,40,74.84,R Law/Mil 40-44,,,72.5,,,,72.5,1
82.5,B,Raw,M,Eli Burks,USA,MO,20,82.1,R JR,,,150,,,,150,1
82.5,B,Raw,M,Matt Sanchez,USA,FL,23,77.56,R JR,,,142.5,,,,142.5,2
82.5,B,Raw,M,William Brothers,USA,SC,27,78.93,R Life,,,145,,,,145,1
82.5,B,Raw,M,Tony Kokell,USA,NY,49,77.56,RM 45-49,,,115,,,,115,1
82.5,B,Raw,M,Paul DeMarchis,USA,SC,50,79.38,RM 50-54,,,126,,,,126,1
82.5,B,Raw,M,Alston Royal,USA,MD,46,80.74,R Law/Mil 45-49,,,110,,,,110,1
82.5,B,Raw,M,Paul DeMarchis,USA,SC,50,79.38,R Law/Mil 50-54,,,126,,,,126,1
82.5,B,Raw,M,Gregory Davis,,,31,80.74,R Law/Mil,,,165,,,,165,1
82.5,B,Raw,M,Corey Dabney,USA,VA,37,81.65,R Law/Mil,,,135,,,,135,2
82.5,B,Raw,M,Corey Dabney,USA,VA,37,81.65,R Law/Mil,,,135,,,,135,3
82.5,B,Raw,M,Corey Dabney,USA,VA,37,81.65,R Law/Mil Sub,,,135,,,,135,1
82.5,B,Raw,M,Corey Dabney,USA,VA,37,81.65,R Law/Mil Sub,,,135,,,,135,2
82.5,B,Raw,M,Ramis Bahshaliyev,Canada,ON,36,82.1,R Open,,,167.5,,,,167.5,1
82.5,B,Raw,M,Gregory Davis,,,31,80.74,R Open,,,165,,,,165,2
82.5,B,Raw,M,Tony Kokell,USA,NY,49,77.56,RSO 45-49,,,115,,,,115,1
82.5,B,Raw,M,Ramis Bahshaliyev,Canada,ON,36,82.1,R Sub,,,167.5,,,,167.5,1
90,B,Raw,M,Raymond Mack,USA,VA,41,87.54,RM 40-44,,,160,,,,160,1
90,B,Raw,M,Keith Harmon,USA,NC,60,88,RM 60-64,,,158,160,,,158,1
90,B,Raw,M,George Walker,USA,FL,61,88.9,RM 60-64,,,150,,,,150,2
90,B,Raw,M,Anthony Jones,USA,VA,41,88.9,R Law/Mil 40-44,,,160,,,,160,1
90,B,Raw,M,Nicholas Joy,USA,MD,36,86.64,R Law/Mil Sub,,,107.5,,,,107.5,1
90,B,Raw,M,Anthony Tillman,USA,NJ,32,88,R Open,,,90,,,,90,1
90,B,Raw,M,Raymond Mack,USA,VA,41,87.54,R Open,,,160,,,,160,2
90,B,Raw,M,Sean McGrath,USA,NY,37,88.45,RSO Sub,,,137.5,,,,137.5,1
90,B,Raw,M,Sean McGrath,USA,NY,37,88.45,R Sub,,,137.5,,,,137.5,1
100,B,Raw,M,Chester Wooten,USA,TN,64,95.25,RLM 60-64,,,164,171,,,164,1
100,B,Raw,M,James Riley,,,28,92.53,R Open,,,182.5,,,,182.5,1
100,B,Raw,M,Jeremy Brown,USA,NY,17,96.16,RT 16-17,,,172.5,,,,172.5,1
110,B,Raw,M,Keith Mackey,USA,NC,36,103.42,R Law/Mil,,,207.5,,,,207.5,2
110,B,Raw,M,Keith Mackey,USA,NC,36,103.42,R Law/Mil Sub,,,207.5,,,,207.5,1
110,B,Raw,M,Louis Gray,USA,VA,33,107.95,R Law/Mil,,,182.5,,,,182.5,1
125,B,Raw,M,Salvatore Scoleri,USA,FL,30,112.04,R Open,,,185,,,,185,1
52,D,Single-ply,M,Nathan Litowsky,USA,NJ,13,51.71,T 12-13,,,,,117.5,,117.5,1
60,D,Single-ply,M,Nick Lenhart,USA,UT,20,59.87,JR,,,,,220,227.5,220,1
60,D,Single-ply,M,Nick Lenhart,USA,UT,20,59.87,Life,,,,,220,227.5,220,1
67.5,D,Single-ply,M,John Ianno,USA,FL,18,65.32,T 18-19,,,,,210,,210,1
75,D,Single-ply,M,Martin Montgomery,USA,IN,64,74.39,LM 60-64,,,,,222.5,,222.5,1
75,D,Single-ply,M,David Constantineau,USA,WI,50,73.03,M 50-54,,,,,210,,210,1
75,D,Single-ply,M,Martin Montgomery,USA,IN,64,74.39,M 60-64,,,,,222.5,,222.5,1
75,D,Single-ply,M,Darren Flagg,USA,CO,34,74.84,Open,,,,,273.5,,273.5,1
90,D,Single-ply,M,Charles Peters,USA,MA,43,86.18,M 40-44,,,,,255,,255,1
90,D,Single-ply,M,Allan Reiss,USA,FL,52,89.36,M 50-54,,,,,190,,190,1
90,D,Single-ply,M,Bill Remley,USA,FL,77,86.64,M 75-79,,,,,182.5,,182.5,1
100,D,Single-ply,M,Brian Ronie,USA,NC,48,94.8,Law/Mil 45-49,,,,,207.5,210,207.5,1
100,D,Single-ply,M,Christopher Melanson,USA,MA,33,95.25,Law/Mil,,,,,220,,220,1
100,D,Single-ply,M,Brian Ronie,USA,NC,48,94.8,LM 45-49,,,,,207.5,210,207.5,1
100,D,Single-ply,M,Christopher Melanson,USA,MA,33,95.25,Life,,,,,220,,220,1
110,D,Single-ply,M,Mark Hogan,USA,CT,54,107.95,Law/Mil 50-54,,,,,225,,225,1
110,D,Single-ply,M,Damon Sansom,USA,FL,33,104.78,Law/Mil,,,,,210,,210,1
110,D,Single-ply,M,Mark Hogan,USA,CT,54,107.95,M 50-54,,,,,225,,225,1
125,D,Single-ply,M,Guy Powell,USA,WI,38,124.28,Sub,,,,,250,,250,1
140,D,Single-ply,M,James Myers,USA,FL,41,134.72,Law/Mil 40-44,,,,,230,,230,1
140,D,Single-ply,M,Zach Chirco,USA,MA,19,132.45,T 18-19,,,,,240,,240,1
140+,D,Single-ply,M,Alan Borden,USA,TX,44,147.87,LM 40-44,,,,,237.5,,237.5,1
140+,D,Single-ply,M,Joe Jefferson,USA,OK,19,174.63,T 18-19,,,,,262.5,,262.5,1
52,D,Raw,M,Giovanni Dudley,USA,FL,13,51.71,RT 12-13,,,,,85,,85,1
56,D,Raw,M,Andrew Farrar,USA,MA,58,54.43,RLM 55-59,,,,,162,,162,1
56,D,Raw,M,Andrew Farrar,USA,MA,58,54.43,RM 55-59,,,,,162,,162,1
56,D,Raw,M,Ben Etringer,USA,NC,14,54.43,R Open,,,,,140,,140,1
56,D,Raw,M,Andrew Farrar,USA,MA,58,54.43,R Open,,,,,162,,162,2
56,D,Raw,M,Ben Etringer,USA,NC,14,54.43,RT 14-15,,,,,140,,140,1
60,D,Raw,M,Mark Schultz,USA,WA,49,59.42,RLM 45-49,,,,,175,,175,1
60,D,Raw,M,Mark Schultz,USA,WA,49,59.42,RM 45-49,,,,,175,,175,1
67.5,D,Raw,M,Martin Heindl,Austria,,51,67.13,RM 50-54,,,,,200,205,200,1
67.5,D,Raw,M,Martin Heindl,Austria,,51,67.13,R Open,,,,,200,205,200,1
67.5,D,Raw,M,Joseph Dudley,USA,FL,14,66.22,RT 14-15,,,,,120,,120,1
75,D,Raw,M,Johnny Gayton,USA,GA,51,74.84,RLM 50-54,,,,,210,,210,1
82.5,D,Raw,M,Eli Burks,USA,,20,82.1,R JR,,,,,250,,250,1
82.5,D,Raw,M,Don Levesque,USA,NH,75,78.47,RLM 75-79,,,,,185,,185,1
82.5,D,Raw,M,Gregory Davis,USA,FL,31,80.74,R Law/Mil,,,,,227.5,,227.5,1
82.5,D,Raw,M,Gregory Davis,USA,FL,31,80.74,R Open,,,,,227.5,,227.5,1
82.5,D,Raw,M,Ramis Bahshaliyev,Canada,ON,36,82.1,R Open,,,,,220,,220,2
82.5,D,Raw,M,Pavel Tsatsouline,USA,CA,38,78.93,R Open,,,,,207.5,,207.5,3
82.5,D,Raw,M,Ramis Bahshaliyev,Canada,ON,36,82.1,R Sub,,,,,220,,220,1
90,D,Raw,M,Richard Anderson,USA,NC,47,88.45,R Law/Mil 45-49,,,,,242,,242,1
90,D,Raw,M,Tom Smith #3,USA,VA,61,89.81,RM 60-64,,,,,267.5,,267.5,1
90,D,Raw,M,Richard Anderson,USA,NC,47,88.45,R Law/Mil 45-49,,,,,242,,242,2
90,D,Raw,M,Daniel Gustafson,USA,CA,39,88,R Open,,,,,237.5,,237.5,1
90,D,Raw,M,James Fuller,USA,ME,35,88,R Open,,,,,227.5,,227.5,2
90,D,Raw,M,Anthony Tillman,USA,NJ,32,88,R Open,,,,,140,,140,3
90,D,Raw,M,Brett Jones,USA,PA,36,88.45,R Sub,,,,,260,,260,1
90,D,Raw,M,Daniel Gustafson,USA,CA,39,88,R Sub,,,,,237.5,,237.5,2
100,D,Raw,M,Chad Singleton,USA,CO,22,90.26,R JR,,,,,240,,240,1
100,D,Raw,M,Russell Becht,USA,CT,50,99.79,RM 50-54,,,,,205,,205,1
100,D,Raw,M,Russell Becht,USA,CT,50,99.79,R Law/Mil 50-54,,,,,205,,205,1
100,D,Raw,M,James Riley,USA,PA,28,92.53,R Open,,,,,262.5,,262.5,2
100,D,Raw,M,Adam Harris,USA,CA,37,96.16,R Open,,,,,285,,285,1
100,D,Raw,M,Jeremy Brown,USA,NY,17,96.16,RT 16-17,,,,,250,,250,1
110,D,Raw,M,Wayne Andrews,USA,NH,60,102.97,R Law/Mil 60-64,,,,,182.5,,182.5,1
110,D,Raw,M,Wayne Andrews,USA,NH,60,102.97,RLM 60-64,,,,,182.5,,182.5,1
110,D,Raw,M,Wayne Andrews,USA,NH,60,102.97,RM 60-64,,,,,182.5,,182.5,1
110,D,Raw,M,Wayne Andrews,USA,NH,60,102.97,R Law/Mil 60-64,,,,,182.5,,182.5,2
125,D,Raw,M,Terry Putman,USA,OK,42,119.29,RM 40-44,,,,,291,,291,1
125,D,Raw,M,Vincent Paige,USA,FL,32,119.29,R Law/Mil,,,,,250,,250,1
125,D,Raw,M,Terry Putman,USA,OK,42,119.29,R Open,,,,,291,,291,1
125,D,Raw,M,Vincent Paige,USA,FL,32,119.29,R Open,,,,,250,,250,2
140+,D,Raw,M,Michael DiBiase,USA,FL,16,153.31,RT 16-17,,,,,200,205,200,1
