Name,WeightClassKg,Division,Best3SquatKg,Best3BenchKg,Best3DeadliftKg,TotalKg,Sex,Event,Equipment,Place,State
Michael Kuhns,60,M-O,249.48,161.03,181.44,591.94,M,SBD,Single-ply,1,
Jason Beck,100,M-O,347,238.14,317.51,902.65,M,SBD,Single-ply,1,
Steve Mann,110,M-O,317.51,258.55,299.37,875.43,M,SBD,Single-ply,1,
Brian Laudadio,125+,M-O,362.87,317.51,319.78,1000.17,M,SBD,Single-ply,1,
