Division,WeightClassKg,Place,Name,Team,BodyweightKg,Best3SquatKg,Best3BenchKg,Best3DeadliftKg,TotalKg,Equipment,Event,Sex
Boys,55.79,1,Max Obregon,Dilley,51.8,149.69,86.18,147.42,383.29,Single-ply,SBD,M
Boys,51.71,2,Isaiah Lucio,Pearsall,47.45,99.79,52.16,99.79,251.74,Single-ply,SBD,M
Boys,51.71,3,Ritchie Nevarez,Uvalde,48.08,90.72,47.63,97.52,235.87,Single-ply,SBD,M
Boys,59.87,1,Michael Casarez,Three Rivers,55.88,179.17,90.72,183.7,453.59,Single-ply,SBD,M
Boys,55.79,2,Josh Lomas,Crystal City,55.52,142.88,102.06,181.44,426.38,Single-ply,SBD,M
Boys,59.87,3,Sawyer Yandell,Natalia,55.97,174.63,74.84,161.03,410.5,Single-ply,SBD,M
Boys,55.79,4,Amit Patel,Three Rivers,53.34,102.06,58.97,122.47,283.5,Single-ply,SBD,M
Boys,55.79,5,Jm Elizondo,Pearsall,52.44,104.33,68.04,108.86,281.23,Single-ply,SBD,M
Boys,55.79,6,Sam Collier,Three Rivers,54.16,83.91,52.16,111.13,247.21,Single-ply,SBD,M
Boys,59.87,1,Felix Gutierrez,Crystal City,59.6,163.29,106.59,174.63,444.52,Single-ply,SBD,M
Boys,59.87,2,Christian Sanchez,Cotulla,56.43,149.69,99.79,172.37,421.84,Single-ply,SBD,M
Boys,59.87,3,Alan Espinosa,Dilley,57.06,147.42,72.57,163.29,383.29,Single-ply,SBD,M
Boys,59.87,4,Joel Rodriguez,Castroville Medina Valley,59.87,136.08,79.38,140.61,356.07,Single-ply,SBD,M
Boys,59.87,5,Juan Rivera,Three Rivers,57.97,77.11,63.5,113.4,254.01,Single-ply,SBD,M
Boys,67.13,DQ,Gustavo Ayala,Cotulla,60.1,,,,,Single-ply,SBD,M
Boys,67.13,1,Zach Ornelas,Pearsall,66.13,172.37,81.65,183.7,437.72,Single-ply,SBD,M
Boys,67.13,2,Ryan Umanzor,Cotulla,66.77,167.83,90.72,176.9,435.45,Single-ply,SBD,M
Boys,67.13,3,Ricky Ayala,Cotulla,66.04,151.95,83.91,181.44,417.3,Single-ply,SBD,M
Boys,67.13,4,Tj Kwapich,Castroville Medina Valley,63.5,138.35,83.91,136.08,358.34,Single-ply,SBD,M
Boys,67.13,5,Fabian Garza,Dilley,64.23,140.61,74.84,140.61,356.07,Single-ply,SBD,M
Boys,74.84,1,John Ventura,Pearsall,74.84,192.78,120.2,215.46,528.44,Single-ply,SBD,M
Boys,74.84,2,Ricky Garza,Crystal City,74.21,170.1,120.2,188.24,478.54,Single-ply,SBD,M
Boys,74.84,3,Mark Ruiz,Cotulla,72.57,179.17,113.4,183.7,476.27,Single-ply,SBD,M
Boys,74.84,4,Trevor Horvath,Castroville Medina Valley,67.95,167.83,115.67,156.49,439.98,Single-ply,SBD,M
Boys,74.84,5,Raul Vasquez,Pearsall,69.58,142.88,97.52,165.56,405.97,Single-ply,SBD,M
Boys,74.84,6,Gilbert Aguirre,Three Rivers,73.94,147.42,83.91,147.42,378.75,Single-ply,SBD,M
Boys,74.84,7,Zeke Hinojosa,Pearsall,72.94,124.74,81.65,136.08,342.46,Single-ply,SBD,M
Boys,74.84,8,Reagan Luce,Barksdale Nueces Canyon,70.4,129.27,79.38,131.54,340.19,Single-ply,SBD,M
Boys,74.84,9,Yngwie Mata,Dilley,68.31,124.74,65.77,127.01,317.51,Single-ply,SBD,M
Boys,74.84,10,Esteban Cruz,Cotulla,69.4,104.33,83.91,127.01,315.25,Single-ply,SBD,M
Boys,74.84,11,Will Vasquez,Dilley,72.3,92.99,79.38,127.01,299.37,Single-ply,SBD,M
Boys,82.1,1,Hunter Peterson,Castroville Medina Valley,78.47,197.31,111.13,190.51,498.95,Single-ply,SBD,M
Boys,82.1,2,Silverio Trejo,Pearsall,81.74,183.7,102.06,156.49,442.25,Single-ply,SBD,M
Boys,82.1,3,Chris Vinton,Pearsall,78.11,158.76,102.06,161.03,421.84,Single-ply,SBD,M
Boys,82.1,4,Brenner Haby,Castroville Medina Valley,76.29,136.08,90.72,151.95,378.75,Single-ply,SBD,M
Boys,82.1,5,Josh Vasquez,Cotulla,80.38,111.13,81.65,131.54,324.32,Single-ply,SBD,M
Boys,82.1,6,James Martinez,Castroville Medina Valley,77.38,102.06,70.31,147.42,319.78,Single-ply,SBD,M
Boys,89.81,1,Jordan Garcia #6,Cotulla,89.45,222.26,136.08,238.14,596.47,Single-ply,SBD,M
Boys,89.81,2,David Garza,Cotulla,83.82,201.85,124.74,226.8,553.38,Single-ply,SBD,M
Boys,89.81,3,Gabe Morales,Pearsall,88.45,192.78,92.99,188.24,474,Single-ply,SBD,M
Boys,89.81,4,Justin Laque,Castroville Medina Valley,88.72,165.56,111.13,181.44,458.13,Single-ply,SBD,M
Boys,89.81,5,Bryan De Los Santos,Dilley,83.82,145.15,122.47,176.9,444.52,Single-ply,SBD,M
Boys,89.81,6,Isaiah Miranda,Cotulla,84.73,149.69,113.4,158.76,421.84,Single-ply,SBD,M
Boys,89.81,7,Aaron Meinecke,Three Rivers,85.09,156.49,83.91,181.44,421.84,Single-ply,SBD,M
Boys,89.81,8,Ace Sanchez,Barksdale Nueces Canyon,83.37,149.69,88.45,158.76,396.89,Single-ply,SBD,M
Boys,89.81,9,Isaiah DeLeon,Barksdale Nueces Canyon,87.54,147.42,81.65,161.03,390.09,Single-ply,SBD,M
Boys,89.81,10,Ab Cantu,Pearsall,89.81,129.27,88.45,151.95,369.68,Single-ply,SBD,M
Boys,89.81,11,Lance Huerta,Natalia,87.63,131.54,79.38,154.22,365.14,Single-ply,SBD,M
Boys,99.79,1,Justin Lomas,Crystal City,99.25,238.14,129.27,215.46,582.87,Single-ply,SBD,M
Boys,99.79,2,Darren Garcia,Crystal City,90.9,183.7,102.06,170.1,455.86,Single-ply,SBD,M
Boys,99.79,3,Juan Landa,Castroville Medina Valley,97.89,197.31,92.99,161.03,451.32,Single-ply,SBD,M
Boys,99.79,4,Alejandro Guzman,Dilley,98.16,181.44,92.99,172.37,446.79,Single-ply,SBD,M
Boys,99.79,5,Josh Hicks,Castroville Medina Valley,95.98,167.83,102.06,174.63,444.52,Single-ply,SBD,M
Boys,99.79,6,Ray Palomenque,Pearsall,94.53,154.22,102.06,174.63,430.91,Single-ply,SBD,M
Boys,99.79,7,Ruben Molina,Dilley,96.98,149.69,90.72,142.88,383.29,Single-ply,SBD,M
Boys,109.77,1,Daniel Diaz,Three Rivers,103.06,217.72,136.08,204.12,557.92,Single-ply,SBD,M
Boys,109.77,2,David Nieto,Pearsall,102.87,183.7,111.13,158.76,453.59,Single-ply,SBD,M
Boys,109.77,3,Santana Aguilar,Dilley,107.77,183.7,102.06,149.69,435.45,Single-ply,SBD,M
Boys,109.77,4,Julius Gonzales,Dilley,107.59,183.7,83.91,149.69,417.3,Single-ply,SBD,M
Boys,109.77,5,Ivan Hernandez,Uvalde,106.41,124.74,90.72,149.69,365.14,Single-ply,SBD,M
Boys,124.74,1,Raul Loza,Natalia,124.47,258.55,136.08,195.04,589.67,Single-ply,SBD,M
Boys,124.74,2,Edgar Chavez,Cotulla,113.04,167.83,102.06,165.56,435.45,Single-ply,SBD,M
Boys,124.74,3,Jose Alaniz,Natalia,111.22,151.95,81.65,167.83,401.43,Single-ply,SBD,M
Boys,124.74,DQ,Michael Garza #1,Crystal City,111.95,174.63,,,,Single-ply,SBD,M
Boys,124.74+,1,Michael Reyes,Natalia,142.88,272.16,142.88,247.21,662.24,Single-ply,SBD,M
Boys,124.74+,2,Charest Inman,Castroville Medina Valley,149.41,215.46,156.49,201.85,573.79,Single-ply,SBD,M
Boys,124.74+,3,Kyle Oden,Uvalde,160.57,217.72,115.67,226.8,560.19,Single-ply,SBD,M
Boys,124.74+,4,Garrett Neuman,Castroville Medina Valley,148.51,215.46,142.88,192.78,551.11,Single-ply,SBD,M
Boys,124.74+,5,Drew Kirkpatrick,Uvalde,132.45,195.04,122.47,195.04,512.56,Single-ply,SBD,M
Boys,,NS,Nick O'Bryant,Castroville Medina Valley,,,,,,Single-ply,SBD,M
Boys,,NS,Brandon Mankin,Crystal City,,,,,,Single-ply,SBD,M
Boys,,NS,Albert Martinez,Cotulla,,,,,,Single-ply,SBD,M
Boys,,NS,Kevin Sendejo,Crystal City,,,,,,Single-ply,SBD,M
Boys,,NS,Trevor Ward,Barksdale Nueces Canyon,,,,,,Single-ply,SBD,M
Boys,,NS,Sim Brown,Barksdale Nueces Canyon,,,,,,Single-ply,SBD,M
Boys,,NS,Logan Adair,Barksdale Nueces Canyon,,,,,,Single-ply,SBD,M
Boys,,NS,Rake Palermo,Barksdale Nueces Canyon,,,,,,Single-ply,SBD,M
Boys,,NS,Mark Hernandez #3,Natalia,,,,,,Single-ply,SBD,M
Boys,,NS,Shane Edens,Three Rivers,,,,,,Single-ply,SBD,M
Boys,,NS,Lonnie Reyes,Three Rivers,,,,,,Single-ply,SBD,M
Boys,,NS,Kris Tanguma,Three Rivers,,,,,,Single-ply,SBD,M
