Division,WeightClassKg,Place,Name,Team,BodyweightKg,Best3SquatKg,Best3BenchKg,Best3DeadliftKg,TotalKg,Equipment,Event,Sex
Girls,44.23,1,Dulce De La Cruz,Floresville,41.46,83.91,45.36,92.99,222.26,Single-ply,SBD,F
Girls,44.23,2,Savannah Ramirez,San Antonio Southwest Legacy,44,77.11,29.48,95.25,201.85,Single-ply,SBD,F
Girls,47.85,1,Aaliyah Garcia,Crystal City,47.36,142.88,65.77,138.35,347,Single-ply,SBD,F
Girls,47.85,2,Aaliyah Terrazas,Devine,46.54,104.33,49.9,113.4,267.62,Single-ply,SBD,F
Girls,47.85,3,Granados Analicia,Crystal City,46.27,108.86,56.7,99.79,265.35,Single-ply,SBD,F
Girls,47.85,4,Trinity Garza,Devine,47.85,102.06,43.09,99.79,244.94,Single-ply,SBD,F
Girls,47.85,5,Caitlyn Vara,San Antonio Southwest Legacy,45.9,72.57,27.22,83.91,183.7,Single-ply,SBD,F
Girls,47.85,6,Alicia Rios,San Antonio Cole,46.99,63.5,36.29,77.11,176.9,Single-ply,SBD,F
Girls,51.94,1,Alisha Flores,Beeville Jones,50.62,111.13,74.84,117.93,303.91,Single-ply,SBD,F
Girls,51.94,2,Nelli Martinez,Crystal City,51.53,104.33,56.7,111.13,272.16,Single-ply,SBD,F
Girls,51.94,3,Jeanette Rios,Devine,51.94,90.72,58.97,113.4,263.08,Single-ply,SBD,F
Girls,51.94,4,Veronica Martinez,Crystal City,49.9,90.72,40.82,97.52,229.06,Single-ply,SBD,F
Girls,51.94,5,Deaja Gomez,Floresville,49.71,88.45,38.56,92.99,219.99,Single-ply,SBD,F
Girls,51.94,6,Mia Cancino,San Antonio Cole,51.89,68.04,40.82,83.91,192.78,Single-ply,SBD,F
Girls,51.94,7,Dezzny Altamirano,San Antonio Southwest Legacy,51.26,65.77,27.22,86.18,179.17,Single-ply,SBD,F
Girls,51.94,8,Priscila Maldonado,Floresville,50.17,74.84,27.22,74.84,176.9,Single-ply,SBD,F
Girls,51.94,DQ,Abcde Garza,San Antonio Kennedy,51.71,,,,,Single-ply,SBD,F
Girls,56.02,1,Gabby Moncada,Crystal City,55.25,136.08,61.23,127.01,324.32,Single-ply,SBD,F
Girls,56.02,2,Yesenia Rocha,San Antonio Cole,53.52,113.4,63.5,142.88,319.78,Single-ply,SBD,F
Girls,56.02,3,Mikayla Martinez,Beeville Jones,55.34,117.93,74.84,122.47,315.25,Single-ply,SBD,F
Girls,56.02,4,Zoe E Martinez,Floresville,55.61,95.25,56.7,133.81,285.76,Single-ply,SBD,F
Girls,56.02,5,Jocelyn Rodriguez,San Antonio East Central,54.98,115.67,47.63,113.4,276.69,Single-ply,SBD,F
Girls,56.02,6,Zoe B Martinez,Floresville,55.25,108.86,45.36,113.4,267.62,Single-ply,SBD,F
Girls,56.02,7,Natalie Rodriguez,San Antonio East Central,53.34,102.06,49.9,102.06,254.01,Single-ply,SBD,F
Girls,56.02,8,Alexis Trevino,San Antonio Southwest Legacy,54.98,102.06,36.29,104.33,242.67,Single-ply,SBD,F
Girls,56.02,9,Kayla Martinez,San Antonio Southside,53.98,88.45,47.63,104.33,240.4,Single-ply,SBD,F
Girls,56.02,10,Abbigail Velasquez,San Antonio Southwest Legacy,52.34,97.52,27.22,111.13,235.87,Single-ply,SBD,F
Girls,56.02,11,Sandra Lawcock,Floresville,54.52,104.33,38.56,90.72,233.6,Single-ply,SBD,F
Girls,56.02,12,Kadynse Landry,Castroville Medina Valley,53.8,88.45,38.56,90.72,217.72,Single-ply,SBD,F
Girls,56.02,13,Nayeli Luna,San Antonio Memorial,56.02,86.18,38.56,90.72,215.46,Single-ply,SBD,F
Girls,56.02,14,Kahlia Rodriguez,San Antonio Memorial,54.16,77.11,31.75,77.11,185.97,Single-ply,SBD,F
Girls,56.02,DQ,Kyra Keylich,Devine,54.43,54.43,,,,Single-ply,SBD,F
Girls,60.1,1,Alexia Olivo,San Antonio Holy Cross,59.78,131.54,68.04,127.01,326.59,Single-ply,SBD,F
Girls,60.1,2,Angelica Beltran,Beeville Jones,60.1,120.2,61.23,145.15,326.59,Single-ply,SBD,F
Girls,60.1,3,Adalysa Rosales,San Antonio East Central,58.24,122.47,68.04,122.47,312.98,Single-ply,SBD,F
Girls,60.1,4,Abigail Ramos,San Antonio Southwest Legacy,58.51,113.4,52.16,122.47,288.03,Single-ply,SBD,F
Girls,60.1,5,Gracelyn Snider,Castroville Medina Valley,57.15,108.86,56.7,117.93,283.5,Single-ply,SBD,F
Girls,60.1,6,Emma Bauml,Castroville Medina Valley,58.15,115.67,49.9,115.67,281.23,Single-ply,SBD,F
Girls,60.1,7,Juliana Castor,Floresville,59.78,113.4,56.7,111.13,281.23,Single-ply,SBD,F
Girls,60.1,8,Kaylie Plate,San Antonio East Central,59.06,117.93,45.36,111.13,274.42,Single-ply,SBD,F
Girls,60.1,9,Cesi Ramirez,Center Point,59.42,113.4,45.36,102.06,260.82,Single-ply,SBD,F
Girls,60.1,10,Miriam Garcia,San Antonio Southwest Legacy,56.88,111.13,31.75,102.06,244.94,Single-ply,SBD,F
Girls,60.1,11,Nayeli Swicker,Center Point,59.33,92.99,43.09,83.91,219.99,Single-ply,SBD,F
Girls,60.1,12,Kate Millis,Castroville Medina Valley,57.61,88.45,36.29,90.72,215.46,Single-ply,SBD,F
Girls,60.1,DQ,Rosie Martinez,Crystal City,59.6,,,,,Single-ply,SBD,F
Girls,67.36,1,Amidy Moreno,Beeville Jones,64.59,154.22,79.38,158.76,392.36,Single-ply,SBD,F
Girls,67.36,2,Tori Contretas,Beeville Jones,66.86,138.35,70.31,151.95,360.61,Single-ply,SBD,F
Girls,67.36,3,Deunaria Anderson,Beeville Jones,66.95,138.35,74.84,145.15,358.34,Single-ply,SBD,F
Girls,67.36,4,Brenda Macklin,Center Point,66.86,158.76,58.97,133.81,351.53,Single-ply,SBD,F
Girls,67.36,5,Jennifer Montellano,Crystal City,62.87,136.08,81.65,122.47,340.19,Single-ply,SBD,F
Girls,67.36,6,Mayra Mendoza,Center Point,66.04,129.27,56.7,111.13,297.1,Single-ply,SBD,F
Girls,67.36,7,Zoe Martinez,Castroville Medina Valley,66.04,115.67,54.43,117.93,288.03,Single-ply,SBD,F
Girls,67.36,8,Yesenia Arellano,Floresville,65.59,111.13,52.16,117.93,281.23,Single-ply,SBD,F
Girls,67.36,9,Madalynn Armendarez,Crystal City,64.86,81.65,52.16,122.47,256.28,Single-ply,SBD,F
Girls,67.36,10,Teresa Garcia,Castroville Medina Valley,65.77,92.99,47.63,86.18,226.8,Single-ply,SBD,F
Girls,67.36,11,Kailee Ruhland,San Antonio Cole,61.96,90.72,40.82,90.72,222.26,Single-ply,SBD,F
Girls,67.36,12,Sofia Porter,San Antonio Cole,64.41,72.57,34.02,61.23,167.83,Single-ply,SBD,F
Girls,67.36,DQ,Jessie Ramirez #1,Devine,65.77,136.08,,,,Single-ply,SBD,F
Girls,75.07,1,Emily Rodriguez,Beeville Jones,72.76,154.22,102.06,149.69,405.97,Single-ply,SBD,F
Girls,75.07,2,Desiree Gonzales,Beeville Jones,74.57,149.69,95.25,149.69,394.63,Single-ply,SBD,F
Girls,75.07,3,Monica Villalobos,Center Point,73.66,165.56,68.04,151.95,385.55,Single-ply,SBD,F
Girls,75.07,4,Ericka Garcia,San Antonio East Central,73.48,156.49,65.77,133.81,356.07,Single-ply,SBD,F
Girls,75.07,5,Bianca Jijon,Castroville Medina Valley,72.76,142.88,54.43,149.69,347,Single-ply,SBD,F
Girls,75.07,6,Estefani Ramirez,San Antonio Southwest Legacy,71.76,149.69,56.7,138.35,344.73,Single-ply,SBD,F
Girls,75.07,7,Jazlin Olvera,Devine,68.76,99.79,63.5,147.42,310.71,Single-ply,SBD,F
Girls,75.07,8,Brianna Flores,San Antonio East Central,72.67,136.08,61.23,108.86,306.17,Single-ply,SBD,F
Girls,75.07,9,Karlee Kindred,Castroville Medina Valley,71.94,113.4,63.5,124.74,301.64,Single-ply,SBD,F
Girls,75.07,10,Jermetyca Mc Knight,San Antonio Cole,75.07,113.4,56.7,117.93,288.03,Single-ply,SBD,F
Girls,75.07,11,Heavenly Corpus,San Antonio Kennedy,69.94,106.59,47.63,120.2,274.42,Single-ply,SBD,F
Girls,75.07,12,Marissa Ramirez #3,Crystal City,72.21,122.47,40.82,108.86,272.16,Single-ply,SBD,F
Girls,75.07,13,Azalea Orozco,Floresville,71.76,108.86,52.16,99.79,260.82,Single-ply,SBD,F
Girls,75.07,14,Cristal Altamirano,San Antonio Southwest Legacy,72.85,102.06,56.7,102.06,260.82,Single-ply,SBD,F
Girls,75.07,DQ,Christi'ani Ybarra,Beeville Jones,74.84,,,,,Single-ply,SBD,F
Girls,82.33,1,Kassandra Luna,San Antonio Memorial,82.33,210.92,83.91,181.44,476.27,Single-ply,SBD,F
Girls,82.33,2,Briana Valenzuela,San Antonio East Central,81.92,151.95,70.31,136.08,358.34,Single-ply,SBD,F
Girls,82.33,3,Jackee Corrigan,Beeville Jones,81.47,138.35,74.84,140.61,353.8,Single-ply,SBD,F
Girls,82.33,4,Destiny Sepulveda,Crystal City,77.56,124.74,90.72,133.81,349.27,Single-ply,SBD,F
Girls,82.33,5,Mikaitlyn Anderson,Beeville Jones,79.83,133.81,74.84,131.54,340.19,Single-ply,SBD,F
Girls,82.33,6,Gabriela Uriegas,Floresville,77.38,127.01,56.7,136.08,319.78,Single-ply,SBD,F
Girls,82.33,7,Rosa Lara,San Antonio Southside,80.29,138.35,54.43,122.47,315.25,Single-ply,SBD,F
Girls,82.33,8,Isabella Gutierrez,Devine,79.65,111.13,49.9,127.01,288.03,Single-ply,SBD,F
Girls,82.33,9,Isanelli Escamilla,Crystal City,80.47,124.74,36.29,117.93,278.96,Single-ply,SBD,F
Girls,82.33,10,Emmalee Burr,San Antonio Cole,81.83,108.86,52.16,104.33,265.35,Single-ply,SBD,F
Girls,82.33,11,Hannah Gorsching,San Antonio Southwest Legacy,78.02,90.72,52.16,117.93,260.82,Single-ply,SBD,F
Girls,82.33,12,Kylie Rodriguez,Devine,79.11,83.91,43.09,104.33,231.33,Single-ply,SBD,F
Girls,82.33,DQ,Celestina Rodriguez,San Antonio Southwest Legacy,82.1,,,,,Single-ply,SBD,F
Girls,82.33,DQ,Giana Rios,Crystal City,80.92,,,,,Single-ply,SBD,F
Girls,82.33,DQ,Sarina Ramirez,Crystal City,76.02,,,,,Single-ply,SBD,F
Girls,90.04,1,Khali Key,Devine,89.63,131.54,81.65,149.69,362.87,Single-ply,SBD,F
Girls,90.04,2,Leksi Martinez,Castroville Medina Valley,86.55,151.95,74.84,129.27,356.07,Single-ply,SBD,F
Girls,90.04,3,Sierra Pardo,Floresville,86.36,115.67,56.7,129.27,301.64,Single-ply,SBD,F
Girls,90.04,4,Nayeli Wood,Center Point,87.09,122.47,52.16,120.2,294.84,Single-ply,SBD,F
Girls,90.04,5,Cox Destiny,Crystal City,84.19,124.74,49.9,102.06,276.69,Single-ply,SBD,F
Girls,100.02,1,Bethanie Rodriguez,Crystal City,98.7,190.51,115.67,163.29,469.47,Single-ply,SBD,F
Girls,100.02,2,Mikayla Carroll,Castroville Medina Valley,94.35,174.63,72.57,154.22,401.43,Single-ply,SBD,F
Girls,100.02,3,Felicity Diaz,Devine,97.52,127.01,86.18,138.35,351.53,Single-ply,SBD,F
Girls,100.02,4,Kat Villarreal,Crystal City,98.52,124.74,61.23,115.67,301.64,Single-ply,SBD,F
Girls,100.02,5,Chasity Holt,Center Point,91.35,117.93,74.84,102.06,294.84,Single-ply,SBD,F
Girls,100.02,6,Teresa Valadez,Center Point,92.44,90.72,45.36,115.67,251.74,Single-ply,SBD,F
Girls,100.02,DQ,Jenna Brady,San Antonio Memorial,98.97,81.65,,,,Single-ply,SBD,F
Girls,117.71,1,Luz Garcia,Crystal City,116.75,215.46,102.06,142.88,460.4,Single-ply,SBD,F
Girls,117.71,2,Emily Casillas,Center Point,101.15,174.63,83.91,124.74,383.29,Single-ply,SBD,F
Girls,117.71,3,Alexandra Aguilar,Castroville Medina Valley,106.96,133.81,70.31,136.08,340.19,Single-ply,SBD,F
Girls,117.71,4,Annmarie Rodriguez,San Antonio East Central,114.67,129.27,72.57,133.81,335.66,Single-ply,SBD,F
Girls,117.71,5,Regina Alaniz,Castroville Medina Valley,111.86,108.86,54.43,108.86,272.16,Single-ply,SBD,F
Girls,117.71,6,Paola Valadez,Center Point,109.77,86.18,54.43,77.11,217.72,Single-ply,SBD,F
Girls,117.71,DQ,Sonya Sanchez,San Antonio Memorial,104.51,,,,,Single-ply,SBD,F
Girls,117.71+,1,Aria Metcalf,San Antonio East Central,125.37,190.51,95.25,170.1,455.86,Single-ply,SBD,F
Girls,117.71+,2,Clarissa Ramirez,Crystal City,121.74,124.74,70.31,115.67,310.71,Single-ply,SBD,F
Girls,117.71+,DQ,Analicia Ramirez,Beeville Jones,125.55,170.1,117.93,,,Single-ply,SBD,F
