Division,WeightClassKg,Place,Name,Team,BodyweightKg,Best3SquatKg,Best3BenchKg,Best3DeadliftKg,TotalKg,Equipment,Event,Sex
Freshmen,51.71,1,Leo Maldonado,Roma,47.72,88.45,36.29,86.18,210.92,Single-ply,SBD,M
Freshmen,55.79,1,Franco Rullan,Laredo Nixon,53.48,95.25,61.23,111.13,267.62,Single-ply,SBD,M
Freshmen,67.13,1,Ab Vasquez,Laredo Cigarroa,60.06,113.4,72.57,161.03,347,Single-ply,SBD,M
Freshmen,67.13,2,Albert Bentancourt,Laredo Johnson,60.06,86.18,61.23,106.59,254.01,Single-ply,SBD,M
Freshmen,59.87,3,Albert Salinas,Laredo Nixon,56.38,90.72,47.63,113.4,251.74,Single-ply,SBD,M
Freshmen,59.87,4,Ricky Vasquez,Laredo Johnson,58.06,81.65,52.16,95.25,229.06,Single-ply,SBD,M
Freshmen,59.87,5,Marco Castillo,Roma,56.43,83.91,38.56,83.91,206.38,Single-ply,SBD,M
Freshmen,59.87,6,Adrian Verduzco,Laredo Cigarroa,57.61,72.57,54.43,70.31,197.31,Single-ply,SBD,M
Freshmen,67.13,DQ,Derek Mendiola,Laredo Johnson,59.92,,,,,Single-ply,SBD,M
Freshmen,67.13,1,Josue Tobias,Laredo Nixon,63.5,167.83,97.52,190.51,455.86,Single-ply,SBD,M
Freshmen,67.13,2,Ricardo Gonzalez,Laredo Nixon,66.32,138.35,81.65,154.22,374.21,Single-ply,SBD,M
Freshmen,67.13,3,Rafael Garcia,Roma,66.36,129.27,77.11,163.29,369.68,Single-ply,SBD,M
Freshmen,67.13,4,Sergio Barragan,Laredo United South,61.42,136.08,79.38,147.42,362.87,Single-ply,SBD,M
Freshmen,67.13,5,Mateo Mendoza,Zapata,67.13,120.2,70.31,156.49,347,Single-ply,SBD,M
Freshmen,67.13,6,Ramon Espinoza,Roma,62.87,122.47,83.91,138.35,344.73,Single-ply,SBD,M
Freshmen,67.13,7,Manuel Garcia,Roma,65.54,117.93,72.57,129.27,319.78,Single-ply,SBD,M
Freshmen,67.13,8,Jacob McCoy,Laredo Nixon,64.27,102.06,70.31,129.27,301.64,Single-ply,SBD,M
Freshmen,67.13,9,Javier Martinez,Laredo United South,66.36,106.59,70.31,111.13,288.03,Single-ply,SBD,M
Freshmen,67.13,10,Christopher Chavez #2,Laredo Martin,61.1,79.38,56.7,104.33,240.4,Single-ply,SBD,M
Freshmen,67.13,11,Robert Blanco,Laredo Cigarroa,64.18,72.57,43.09,111.13,226.8,Single-ply,SBD,M
Freshmen,67.13,DQ,Peter Barrios,Laredo Martin,64.46,,,,,Single-ply,SBD,M
Freshmen,67.13,DQ,Sergio Ponce,Laredo Martin,61.33,,,,,Single-ply,SBD,M
Freshmen,82.1,1,Joseph Jimenez,Laredo United South,74.98,165.56,102.06,183.7,451.32,Single-ply,SBD,M
Freshmen,74.84,2,Omar Galvan,Laredo Alexander,71.03,142.88,95.25,154.22,392.36,Single-ply,SBD,M
Freshmen,74.84,3,Branden Gutierrez,Laredo Nixon,72.94,108.86,81.65,154.22,344.73,Single-ply,SBD,M
Freshmen,74.84,4,Damian Villarreal,Roma,68.08,129.27,81.65,131.54,342.46,Single-ply,SBD,M
Freshmen,74.84,5,Johnny Gonzalez,Zapata,74.53,120.2,74.84,142.88,337.93,Single-ply,SBD,M
Freshmen,74.84,6,German Rios,Laredo Cigarroa,73.57,102.06,74.84,124.74,301.64,Single-ply,SBD,M
Freshmen,74.84,7,Jorge Flores,Laredo Martin,71.99,102.06,61.23,108.86,272.16,Single-ply,SBD,M
Freshmen,74.84,8,Israel Garza,Laredo Cigarroa,69.17,81.65,58.97,99.79,240.4,Single-ply,SBD,M
Freshmen,74.84,DQ,Bryan Cruz,Laredo Johnson,69.4,,,,,Single-ply,SBD,M
Freshmen,82.1,1,Benny Cazares,Laredo United,79.42,154.22,117.93,188.24,460.4,Single-ply,SBD,M
Freshmen,82.1,2,Luis Enriquez,Laredo Nixon,79.56,170.1,86.18,172.37,428.64,Single-ply,SBD,M
Freshmen,82.1,3,Joel Manzo,Laredo Nixon,78.02,140.61,90.72,174.63,405.97,Single-ply,SBD,M
Freshmen,82.1,4,Mario Villalobos,Laredo United South,81.19,136.08,74.84,149.69,360.61,Single-ply,SBD,M
Freshmen,89.81,1,Kyle Calderon,Laredo United South,87.91,163.29,108.86,181.44,453.59,Single-ply,SBD,M
Freshmen,89.81,2,Silvestre Martinez,Laredo Martin,87.68,138.35,102.06,170.1,410.5,Single-ply,SBD,M
Freshmen,89.81,3,Juan Quiroz,Roma,88.63,142.88,72.57,158.76,374.21,Single-ply,SBD,M
Freshmen,99.79,4,Victor Lozano,Laredo Nixon,89.95,138.35,63.5,154.22,356.07,Single-ply,SBD,M
Freshmen,89.81,5,Alex Fonseca,Laredo United,89.81,111.13,65.77,151.95,328.85,Single-ply,SBD,M
Freshmen,89.81,6,Bryan Ornelas,Laredo Johnson,82.6,113.4,83.91,124.74,322.05,Single-ply,SBD,M
Freshmen,89.81,7,Pablo Huerta,Laredo Alexander,83.46,120.2,72.57,117.93,310.71,Single-ply,SBD,M
Freshmen,99.79,1,Francisco Torrecilla,Laredo Nixon,96.66,183.7,70.31,190.51,444.52,Single-ply,SBD,M
Freshmen,99.79,2,Gabino Barrera,Roma,98.52,172.37,88.45,154.22,415.04,Single-ply,SBD,M
Freshmen,99.79,3,Dominic Rodriguez,Laredo Johnson,91.85,127.01,97.52,183.7,408.23,Single-ply,SBD,M
Freshmen,99.79,4,Juan Ramirez,Roma,93.67,158.76,79.38,149.69,387.82,Single-ply,SBD,M
Freshmen,99.79,5,Guillermo Perez,Laredo Johnson,95.53,127.01,97.52,147.42,371.95,Single-ply,SBD,M
Freshmen,99.79,6,Aurelio Guzman,Laredo Martin,98.2,129.27,79.38,147.42,356.07,Single-ply,SBD,M
Freshmen,99.79,7,Cesar Rodríguez,Laredo Martin,97.66,124.74,81.65,147.42,353.8,Single-ply,SBD,M
Freshmen,99.79,8,Jesus Moreno,Laredo Alexander,93.17,102.06,70.31,124.74,297.1,Single-ply,SBD,M
Freshmen,99.79,DQ,Joel Vedia,Laredo Johnson,91.26,122.47,,,,Single-ply,SBD,M
Freshmen,109.77,1,Eric Chapa,Zapata,102.51,190.51,95.25,176.9,462.66,Single-ply,SBD,M
Freshmen,109.77,2,Eric Garza,Roma,108.14,165.56,86.18,163.29,415.04,Single-ply,SBD,M
Freshmen,109.77,3,Erik Huerta,Laredo United South,107.59,156.49,92.99,156.49,405.97,Single-ply,SBD,M
Freshmen,109.77,4,Pedro Escobedo,Laredo United South,104.83,149.69,92.99,158.76,401.43,Single-ply,SBD,M
Freshmen,109.77,5,Angel Garza,Laredo Nixon,101.38,142.88,83.91,158.76,385.55,Single-ply,SBD,M
Freshmen,109.77,6,Albert Escobar,Roma,101.47,124.74,70.31,154.22,349.27,Single-ply,SBD,M
Freshmen,109.77,7,Mark Castillo #2,Laredo Alexander,107.95,102.06,79.38,142.88,324.32,Single-ply,SBD,M
Freshmen,109.77,8,Max Villarreal,Laredo United,106.19,124.74,61.23,136.08,322.05,Single-ply,SBD,M
Freshmen,109.77,DQ,Lazaro Leyva,Laredo Johnson,101.02,133.81,,,,Single-ply,SBD,M
Freshmen,124.74,1,Jesus Zapata,Roma,113.99,222.26,133.81,201.85,557.92,Single-ply,SBD,M
Freshmen,124.74,2,Juwan Arce,Laredo United South,110.86,117.93,70.31,163.29,351.53,Single-ply,SBD,M
Freshmen,124.74,3,Jason Maya,Laredo Martin,112.4,133.81,61.23,156.49,351.53,Single-ply,SBD,M
Freshmen,124.74,DQ,Reynaldo Martinez,Laredo Johnson,119.98,136.08,,,,Single-ply,SBD,M
Freshmen,124.74+,1,Juan Vieyra,Laredo Johnson,129.95,145.15,92.99,145.15,383.29,Single-ply,SBD,M
Freshmen,124.74+,2,Josue Alaniz,Roma,157.26,124.74,92.99,138.35,356.07,Single-ply,SBD,M
Freshmen,,NS,Hector Garnica,Laredo United South,,,,,,Single-ply,SBD,M
Freshmen,,NS,Miguel Luna,Laredo Johnson,,,,,,Single-ply,SBD,M
Freshmen,,NS,Guillermo Compton,Laredo Alexander,,,,,,Single-ply,SBD,M
Boys,51.71,1,Nikalas Rosell,Laredo Alexander,50.17,127.01,65.77,133.81,326.59,Single-ply,SBD,M
Boys,51.71,2,Nelson Carmona,Laredo Martin,45.99,115.67,61.23,127.01,303.91,Single-ply,SBD,M
Boys,51.71,3,Hector Lozano,Laredo United South,50.85,92.99,61.23,120.2,274.42,Single-ply,SBD,M
Boys,55.79,1,Eric Oliva,Laredo United South,55.52,188.24,111.13,188.24,487.61,Single-ply,SBD,M
Boys,55.79,2,Cesar Esquivel,Laredo Cigarroa,55.43,156.49,72.57,174.63,403.7,Single-ply,SBD,M
Boys,55.79,3,Jesus Trevino,Zapata,55.2,145.15,83.91,158.76,387.82,Single-ply,SBD,M
Boys,59.87,4,Raul Ortiz,Zapata,55.97,127.01,72.57,136.08,335.66,Single-ply,SBD,M
Boys,55.79,5,Rafael Duenas,Laredo United,54.25,102.06,70.31,147.42,319.78,Single-ply,SBD,M
Boys,55.79,6,Luis Garcia #4,Laredo Martin,54.2,115.67,56.7,129.27,301.64,Single-ply,SBD,M
Boys,55.79,DQ,Isaac Castillo,Laredo Cigarroa,55.61,170.1,86.18,176.9,,Single-ply,SBD,M
Boys,55.79,DQ,Omar Barajas,Laredo Johnson,54.57,,,,,Single-ply,SBD,M
Boys,67.13,1,Maclovio Gomez,Zapata,60.1,158.76,88.45,176.9,424.11,Single-ply,SBD,M
Boys,59.87,2,Juan Carmona,Laredo United,59.65,124.74,83.91,170.1,378.75,Single-ply,SBD,M
Boys,59.87,3,Artemio Garcia,Zapata,59.47,140.61,92.99,142.88,376.48,Single-ply,SBD,M
Boys,59.87,DQ,Carlos García,Zapata,56.61,97.52,,,,Single-ply,SBD,M
Boys,59.87,DQ,Abraham Meneses,Laredo Martin,58.97,,,,,Single-ply,SBD,M
Boys,67.13,1,Paul Osorio,Laredo United,66.22,122.47,77.11,145.15,344.73,Single-ply,SBD,M
Boys,67.13,2,Alfonso Granger,Laredo Johnson,61.96,106.59,81.65,149.69,337.93,Single-ply,SBD,M
Boys,67.13,DQ,Rene Cabrerra,Laredo Cigarroa,64.14,,,,,Single-ply,SBD,M
Boys,74.84,1,Marco DeLuna,Laredo United South,74.75,217.72,136.08,208.65,562.45,Single-ply,SBD,M
Boys,74.84,2,Bryce Turner,Laredo Alexander,73.94,201.85,147.42,192.78,542.04,Single-ply,SBD,M
Boys,74.84,3,Yahir Garcia,Laredo United South,73.57,192.78,113.4,226.8,532.97,Single-ply,SBD,M
Boys,74.84,4,Sergio Garcia,Laredo Nixon,73.21,215.46,106.59,190.51,512.56,Single-ply,SBD,M
Boys,74.84,5,Mark Molina,Laredo Cigarroa,72.67,174.63,88.45,190.51,453.59,Single-ply,SBD,M
Boys,74.84,6,Andy DeLeon,Laredo Nixon,72.8,149.69,95.25,199.58,444.52,Single-ply,SBD,M
Boys,74.84,7,Eric Corona,Laredo United,70.13,149.69,97.52,176.9,424.11,Single-ply,SBD,M
Boys,74.84,8,Jonathan Brooks,Laredo Martin,73.89,151.95,92.99,174.63,419.57,Single-ply,SBD,M
Boys,74.84,9,Chris Garza #2,Zapata,73.8,151.95,88.45,145.15,385.55,Single-ply,SBD,M
Boys,74.84,10,Chris Nenque,Laredo Nixon,72.8,97.52,56.7,120.2,274.42,Single-ply,SBD,M
Boys,74.84,DQ,Joe Paredes,Zapata,74.84,,,,,Single-ply,SBD,M
Boys,89.81,1,Victor Ramos,Laredo United South,82.19,226.8,138.35,249.48,614.62,Single-ply,SBD,M
Boys,82.1,2,Adrian Garcia,Roma,80.88,204.12,117.93,183.7,505.76,Single-ply,SBD,M
Boys,82.1,3,Eloy Soto,Laredo Cigarroa,79.11,165.56,120.2,183.7,469.47,Single-ply,SBD,M
Boys,82.1,4,Danny Sanchez,Laredo Alexander,75.66,181.44,102.06,181.44,464.93,Single-ply,SBD,M
Boys,82.1,5,RJ Garza,Roma,81.78,165.56,106.59,181.44,453.59,Single-ply,SBD,M
Boys,82.1,6,Andy Saucedo,Laredo United,81.01,163.29,95.25,188.24,446.79,Single-ply,SBD,M
Boys,82.1,7,Gilbert Arredondo,Laredo United South,77.88,158.76,95.25,149.69,403.7,Single-ply,SBD,M
Boys,82.1,8,Mathew Guzman,Laredo Nixon,80.06,154.22,88.45,154.22,396.89,Single-ply,SBD,M
Boys,82.1,9,Carlos Galvan,Laredo Alexander,81.96,142.88,70.31,158.76,371.95,Single-ply,SBD,M
Boys,89.81,10,Chris LaRosch,Zapata,82.28,97.52,61.23,127.01,285.76,Single-ply,SBD,M
Boys,82.1,DQ,Jonathan Valadez,Laredo Johnson,78.7,,,,,Single-ply,SBD,M
Boys,82.1,DQ,Gustavo Cano,Laredo Martin,77.84,154.22,,,,Single-ply,SBD,M
Boys,89.81,1,Noe Gonzalez,Laredo United South,88.22,235.87,140.61,235.87,612.35,Single-ply,SBD,M
Boys,89.81,2,Jose Anaya,Laredo United South,85.82,224.53,120.2,215.46,560.19,Single-ply,SBD,M
Boys,89.81,3,David Oliva,Laredo Martin,88.99,210.92,133.81,208.65,553.38,Single-ply,SBD,M
Boys,89.81,4,Jonathan Rodrigues,Laredo Nixon,83.37,192.78,102.06,208.65,503.49,Single-ply,SBD,M
Boys,89.81,5,Frank Alba,Laredo United South,87.5,192.78,108.86,183.7,485.34,Single-ply,SBD,M
Boys,89.81,6,Norman Madrigal,Laredo Johnson,86.77,149.69,95.25,183.7,428.64,Single-ply,SBD,M
Boys,89.81,DQ,Humberto Garcia,Roma,87.04,158.76,108.86,,,Single-ply,SBD,M
Boys,89.81,DQ,Daniel Hughes,Laredo Johnson,84.82,,,,,Single-ply,SBD,M
Boys,99.79,1,Jose Flores #2,Laredo Cigarroa,98.66,247.21,165.56,244.94,657.71,Single-ply,SBD,M
Boys,99.79,2,Cecilio Garcia,Laredo Nixon,95.39,204.12,140.61,215.46,560.19,Single-ply,SBD,M
Boys,99.79,3,Mario Fuentes,Laredo Martin,91.63,170.1,111.13,204.12,485.34,Single-ply,SBD,M
Boys,99.79,4,Rafael Estevis,Laredo United,95.3,154.22,115.67,204.12,474,Single-ply,SBD,M
Boys,99.79,5,Eddie Dominguez,Laredo United,95.62,174.63,99.79,192.78,467.2,Single-ply,SBD,M
Boys,99.79,6,Max Ramos,Laredo Johnson,98.07,174.63,74.84,190.51,439.98,Single-ply,SBD,M
Boys,99.79,DQ,Efren Molina,Laredo Martin,95.21,133.81,,,,Single-ply,SBD,M
Boys,109.77,1,Max Flores,Laredo Alexander,109.63,258.55,163.29,242.67,664.51,Single-ply,SBD,M
Boys,109.77,2,Santos Alvarado,Laredo United,106.37,263.08,156.49,238.14,657.71,Single-ply,SBD,M
Boys,109.77,3,Agustin Lara,Laredo United South,103.92,215.46,140.61,226.8,582.87,Single-ply,SBD,M
Boys,124.74,4,Silvestre Bustamante,Zapata,109.86,226.8,140.61,190.51,557.92,Single-ply,SBD,M
Boys,109.77,5,Victor Nenque,Laredo Nixon,107.09,199.58,131.54,179.17,510.29,Single-ply,SBD,M
Boys,109.77,6,Armando Castillo,Laredo Alexander,107.27,183.7,117.93,190.51,492.15,Single-ply,SBD,M
Boys,109.77,7,Andrew Servin,Laredo Cigarroa,107.77,170.1,122.47,188.24,480.81,Single-ply,SBD,M
Boys,109.77,8,Austin Hart,Laredo Alexander,109.32,183.7,92.99,192.78,469.47,Single-ply,SBD,M
Boys,124.74,1,Carlos Sanchez,Laredo United South,122.65,249.48,124.74,263.08,637.3,Single-ply,SBD,M
Boys,124.74,2,Gilbert Hernandez,Laredo Cigarroa,120.93,258.55,149.69,213.19,621.42,Single-ply,SBD,M
Boys,124.74,3,Gustavo Diaz,Laredo Alexander,116.57,229.06,161.03,215.46,605.55,Single-ply,SBD,M
Boys,124.74,4,Ovidio Hernandez,Roma,114.35,226.8,131.54,244.94,603.28,Single-ply,SBD,M
Boys,124.74+,5,Fernando Guevara,Laredo Johnson,124.78,183.7,95.25,199.58,478.54,Single-ply,SBD,M
Boys,124.74,6,Jose Beltran,Laredo Martin,111.45,188.24,99.79,181.44,469.47,Single-ply,SBD,M
Boys,124.74,7,Efrain Batres,Laredo Martin,113.67,192.78,88.45,183.7,464.93,Single-ply,SBD,M
Boys,124.74,8,Guadalupe Gonzalez,Laredo Martin,114.94,167.83,88.45,201.85,458.13,Single-ply,SBD,M
Boys,124.74,9,Oscar Zepeda,Zapata,116.66,170.1,102.06,170.1,442.25,Single-ply,SBD,M
Boys,124.74,10,Zachary Gonzalez,Laredo Nixon,110.54,154.22,79.38,181.44,415.04,Single-ply,SBD,M
Boys,124.74+,1,Rudy Flores,Laredo United South,141.75,317.51,208.65,294.84,821,Single-ply,SBD,M
Boys,124.74+,2,Eduardo Sanchez,Zapata,141.29,267.62,181.44,240.4,689.46,Single-ply,SBD,M
Boys,124.74+,3,Gerardo Gonzalez,Laredo Nixon,125.46,240.4,145.15,226.8,612.35,Single-ply,SBD,M
Boys,,NS,Victor Lozano,Laredo Nixon,,,,,,Single-ply,SBD,M
Boys,,NS,Marc Cerda,Laredo United,,,,,,Single-ply,SBD,M
Boys,,NS,Armando Ramirez,Laredo United,,,,,,Single-ply,SBD,M
Boys,,NS,Alexis Villanueva,Laredo United,,,,,,Single-ply,SBD,M
Boys,,NS,Danny Cardona,Laredo United,,,,,,Single-ply,SBD,M
Boys,,NS,Alex Maldonado,Roma,,,,,,Single-ply,SBD,M
Boys,,NS,Gregorio Abundis,Laredo United South,,,,,,Single-ply,SBD,M
Boys,,NS,Raul Fuentes,Laredo Nixon,,,,,,Single-ply,SBD,M
Boys,,NS,Joe Torres,Laredo Nixon,,,,,,Single-ply,SBD,M
Boys,,NS,Jacob McCoy,Laredo Nixon,,,,,,Single-ply,SBD,M
Boys,,NS,Jose Rios,Roma,,,,,,Single-ply,SBD,M
