Division,WeightClassKg,Place,Name,Team,BodyweightKg,Best3SquatKg,Best3BenchKg,Best3DeadliftKg,TotalKg,Equipment,Event,Sex,BirthDate
Boys,51.71,1,Avery Whitlow,Atlanta,51.53,108.86,61.23,115.67,285.76,Single-ply,SBD,M,
Boys,55.79,1,Shmar Garrett,Carthage,55.29,147.42,83.91,145.15,376.48,Single-ply,SBD,M,
Boys,55.79,2,James Toal,Waskom,55.7,97.52,56.7,117.93,272.16,Single-ply,SBD,M,
Boys,59.87,1,Christian Wilson,Hughes Springs,58.15,115.67,92.99,124.74,333.39,Single-ply,SBD,M,
Boys,59.87,2,Kayden Barnwell,Hughes Springs,58.88,106.59,68.04,122.47,297.1,Single-ply,SBD,M,
Boys,59.87,3,Trey Stephenson,Waskom,59.69,104.33,56.7,111.13,272.16,Single-ply,SBD,M,
Boys,67.13,1,Deshun White,Texarkana Texas,61.33,165.56,83.91,158.76,408.23,Single-ply,SBD,M,
Boys,67.13,2,Guy Johsnon,Texarkana Texas,66.41,149.69,70.31,163.29,383.29,Single-ply,SBD,M,
Boys,67.13,3,Austin Pilgrim,Hughes Springs,66.77,138.35,88.45,156.49,383.29,Single-ply,SBD,M,
Boys,67.13,4,Adrian Kennington,Atlanta,67.13,136.08,86.18,151.95,374.21,Single-ply,SBD,M,
Boys,67.13,5,Kevin Castro,Waskom,66.86,113.4,61.23,104.33,278.96,Single-ply,SBD,M,
Boys,67.13,DQ,Michael Cooper,Waskom,67,,,,,Single-ply,SBD,M,
Boys,74.84,1,Logan Shelton,Atlanta,74.16,170.1,115.67,204.12,489.88,Single-ply,SBD,M,
Boys,74.84,2,Austin Terry,Queen City,73.16,183.7,90.72,181.44,455.86,Single-ply,SBD,M,
Boys,74.84,3,Montrell Denmark,Texarkana Texas,71.4,172.37,99.79,172.37,444.52,Single-ply,SBD,M,
Boys,74.84,4,Tyler Thomas,Texarkana Texas,74.16,136.08,113.4,181.44,430.91,Single-ply,SBD,M,
Boys,74.84,5,Cooper Wallis,Hughes Springs,69.08,124.74,90.72,122.47,337.93,Single-ply,SBD,M,
Boys,74.84,6,Xavier Nash,Atlanta,74.25,127.01,83.91,127.01,337.93,Single-ply,SBD,M,
Boys,74.84,7,John Hight,Waskom,68.76,113.4,65.77,113.4,292.57,Single-ply,SBD,M,
Boys,74.84,DQ,Alan Banda,Texarkana Texas,74.03,,,,,Single-ply,SBD,M,
Boys,82.1,1,Kentrel Andrews,Atlanta,79.47,206.38,95.25,197.31,498.95,Single-ply,SBD,M,
Boys,82.1,2,Dekorian Parker,Atlanta,77.38,165.56,124.74,192.78,483.08,Single-ply,SBD,M,
Boys,82.1,3,Caden Miller,Texarkana Texas,76.25,142.88,111.13,158.76,412.77,Single-ply,SBD,M,
Boys,82.1,4,Brendan Clayton,Atlanta,82.1,124.74,83.91,154.22,362.87,Single-ply,SBD,M,
Boys,82.1,5,Riley Herron,Hughes Springs,81.87,120.2,88.45,136.08,344.73,Single-ply,SBD,M,
Boys,82.1,DQ,Texan Lancaster,Hughes Springs,80.83,,,,,Single-ply,SBD,M,
Boys,89.81,1,Dmitri Coles,Texarkana Texas,86.55,215.46,113.4,215.46,544.31,Single-ply,SBD,M,
Boys,89.81,2,Jeremiah Jefferson,Atlanta,84.05,190.51,106.59,195.04,492.15,Single-ply,SBD,M,
Boys,89.81,3,Cole Edwards,Hughes Springs,84.55,172.37,113.4,181.44,467.2,Single-ply,SBD,M,
Boys,89.81,4,Amarian Thomas,Atlanta,86.23,165.56,92.99,145.15,403.7,Single-ply,SBD,M,
Boys,89.81,5,Hunter Dodson,Atlanta,86.82,104.33,61.23,136.08,301.64,Single-ply,SBD,M,
Boys,99.79,1,Trey Adams,Atlanta,94.66,254.01,158.76,235.87,648.64,Single-ply,SBD,M,
Boys,99.79,2,Ty Blizzard,Atlanta,96.89,181.44,136.08,206.38,523.9,Single-ply,SBD,M,
Boys,99.79,3,Clay Fant,Atlanta,96.57,183.7,131.54,190.51,505.76,Single-ply,SBD,M,
Boys,99.79,4,Detrich Byrd,Waskom,94.62,170.1,124.74,192.78,487.61,Single-ply,SBD,M,
Boys,99.79,5,Brennan Gaston,Atlanta,99.06,181.44,113.4,185.97,480.81,Single-ply,SBD,M,
Boys,99.79,6,Carson Dillenger,Atlanta,99.06,188.24,108.86,172.37,469.47,Single-ply,SBD,M,
Boys,99.79,7,Lazaro Torres,Waskom,99.43,176.9,97.52,158.76,433.18,Single-ply,SBD,M,
Boys,99.79,8,Jon Branch,Waskom,92.26,154.22,90.72,165.56,410.5,Single-ply,SBD,M,
Boys,99.79,9,Colby Kniepp,Carthage,95.03,120.2,106.59,122.47,349.27,Single-ply,SBD,M,
Boys,99.79,10,Juan Castro,Waskom,93.8,149.69,81.65,113.4,344.73,Single-ply,SBD,M,
Boys,99.79,11,Juan Perez #1,Carthage,98.52,129.27,90.72,124.74,344.73,Single-ply,SBD,M,
Boys,109.77,1,Trestin Whitehead,Texarkana Texas,100.33,247.21,163.29,240.4,650.91,Single-ply,SBD,M,
Boys,109.77,2,Collin Shelley,Texarkana Texas,109.45,192.78,104.33,226.8,523.9,Single-ply,SBD,M,
Boys,109.77,3,Noah Hunt,Atlanta,106.28,197.31,115.67,181.44,494.42,Single-ply,SBD,M,
Boys,109.77,4,Isaiah Harrison,Atlanta,108.59,190.51,127.01,172.37,489.88,Single-ply,SBD,M,
Boys,109.77,5,Antonio Tyson,Texarkana Texas,101.33,176.9,92.99,195.04,464.93,Single-ply,SBD,M,
Boys,109.77,6,Hayden Harrell,Texarkana Texas,109.41,170.1,106.59,183.7,460.4,Single-ply,SBD,M,
Boys,109.77,7,Braden Tucker,Texarkana Texas,108.91,165.56,90.72,161.03,417.3,Single-ply,SBD,M,
Boys,109.77,8,Carlos Cortes,Atlanta,106.19,158.76,92.99,158.76,410.5,Single-ply,SBD,M,
Boys,109.77,9,DeAundre Mitchell,Atlanta,104.46,129.27,113.4,161.03,403.7,Single-ply,SBD,M,
Boys,109.77,10,Richard Jackson,Texarkana Texas,109.45,136.08,83.91,142.88,362.87,Single-ply,SBD,M,
Boys,109.77,DQ,Mike Lanier #2,Hughes Springs,105.32,,,,,Single-ply,SBD,M,
Boys,124.74,1,Cade Fant,Atlanta,110.09,240.4,154.22,254.01,648.64,Single-ply,SBD,M,
Boys,124.74,2,Aidyn Hunter,Texarkana Texas,124.15,219.99,136.08,215.46,571.53,Single-ply,SBD,M,
Boys,124.74,3,Christian Surratt,Texarkana Texas,123.1,174.63,136.08,229.06,539.77,Single-ply,SBD,M,
Boys,124.74,4,Brandon Childs,Texarkana Texas,114.85,231.33,117.93,174.63,523.9,Single-ply,SBD,M,
Boys,124.74,5,Jaden Wells,Atlanta,118.84,190.51,127.01,204.12,521.63,Single-ply,SBD,M,
Boys,124.74,6,Edwyn Magdaleno,Waskom,113.4,204.12,104.33,158.76,467.2,Single-ply,SBD,M,
Boys,124.74,7,Jovanie Agundiz,Waskom,110.95,181.44,92.99,161.03,435.45,Single-ply,SBD,M,
Boys,124.74,8,Morgan Bivins,Atlanta,119.02,145.15,104.33,147.42,396.89,Single-ply,SBD,M,
Boys,124.74,9,Rogelio Luna,Carthage,121.93,129.27,92.99,131.54,353.8,Single-ply,SBD,M,
Boys,124.74+,1,Demarcus Day,Texarkana Texas,157.03,238.14,163.29,242.67,644.1,Single-ply,SBD,M,
Boys,124.74+,2,Tee Kellum,Carthage,147.51,272.16,145.15,195.04,612.35,Single-ply,SBD,M,
Boys,124.74+,3,Karston Williams,Carthage,158.89,240.4,145.15,199.58,585.13,Single-ply,SBD,M,
Boys,124.74+,4,Wyatt Brandon,Hughes Springs,159.53,172.37,147.42,161.03,480.81,Single-ply,SBD,M,
Boys,124.74+,5,Laynce Welch,Waskom,125.24,197.31,99.79,161.03,458.13,Single-ply,SBD,M,
Boys,124.74+,6,Nick Batton,Texarkana Texas,132.04,142.88,97.52,181.44,421.84,Single-ply,SBD,M,
Boys,124.74+,7,Matthew Zamarippa,Hughes Springs,149.69,138.35,83.91,138.35,360.61,Single-ply,SBD,M,
Boys,124.74+,DQ,Cedric Davis,Queen City,162.48,,,,,Single-ply,SBD,M,
