Name,WeightClassKg,Division,AgeRange,Best3SquatKg,Best3BenchKg,Best3DeadliftKg,TotalKg,Event,Equipment,Sex,Place
R. Gillen #1,52,Teen 14-15,14-15,135,70,162.5,367.5,SBD,Single-ply,M,1
P. Campbell,52,Teen 14-15,14-15,140,70,152.5,362.5,SBD,Single-ply,M,2
D. Koberlein,52,Teen 14-15,14-15,117.5,75,132.5,325,SBD,Single-ply,M,3
J. Sparks,52,Teen 14-15,14-15,102.5,52.5,115,270,SBD,Single-ply,M,4
M. DeLoach,56,Teen 14-15,14-15,125,82.5,147.5,355,SBD,Single-ply,M,1
B. Lockwood,60,Teen 14-15,14-15,160,77.5,192.5,430,SBD,Single-ply,M,1
S. Cissell,60,Teen 14-15,14-15,155,87.5,150,392.5,SBD,Single-ply,M,2
J. Presson,60,Teen 14-15,14-15,150,90,130,370,SBD,Single-ply,M,3
Brian Bowers,67.5,Teen 14-15,14-15,175,105,200,480,SBD,Single-ply,M,1
S. Smith #10,67.5,Teen 14-15,14-15,167.5,105,182.5,455,SBD,Single-ply,M,2
S. Graves,67.5,Teen 14-15,14-15,145,85,182.5,412.5,SBD,Single-ply,M,3
K. Peake,75,Teen 14-15,14-15,192.5,95,185,472.5,SBD,Single-ply,M,1
D. Fisher,75,Teen 14-15,14-15,155,95,160,410,SBD,Single-ply,M,2
E. Krause,82.5,Teen 14-15,14-15,175,125,185,485,SBD,Single-ply,M,1
D. Fenton,125,Teen 14-15,14-15,192.5,105,207.5,505,SBD,Single-ply,M,1
Sean Augustin,52,Teen 16-17,16-17,152.5,102.5,165,420,SBD,Single-ply,M,1
G. Ellis,52,Teen 16-17,16-17,157.5,67.5,165,390,SBD,Single-ply,M,2
R. Krasneck,52,Teen 16-17,16-17,130,72.5,142.5,345,SBD,Single-ply,M,3
D. DeCuir,52,Teen 16-17,16-17,112.5,70,135,317.5,SBD,Single-ply,M,4
S. Bonds,56,Teen 16-17,16-17,165,105,177.5,447.5,SBD,Single-ply,M,1
James Benemerito,56,Teen 16-17,16-17,155,100,185,440,SBD,Single-ply,M,2
Mike Stagg,56,Teen 16-17,16-17,152.5,95,180,427.5,SBD,Single-ply,M,3
J. Shifrin,56,Teen 16-17,16-17,150,77.5,142.5,370,SBD,Single-ply,M,4
B. McCarter,56,Teen 16-17,16-17,125,90,152.5,367.5,SBD,Single-ply,M,5
R. Gillen #2,56,Teen 16-17,16-17,120,65,172.5,357.5,SBD,Single-ply,M,6
G. Wilk,60,Teen 16-17,16-17,175,87.5,192.5,455,SBD,Single-ply,M,1
J. Robinson,60,Teen 16-17,16-17,182.5,80,172.5,435,SBD,Single-ply,M,3
J. Wilkes,60,Teen 16-17,16-17,157.5,110,175,442.5,SBD,Single-ply,M,2
M. Bradway,60,Teen 16-17,16-17,147.5,95,167.5,410,SBD,Single-ply,M,4
Todd Dimock,60,Teen 16-17,16-17,150,82.5,167.5,400,SBD,Single-ply,M,5
Stewart Breeding,67.5,Teen 16-17,16-17,210,110,207.5,527.5,SBD,Single-ply,M,1
Chris Niedbalski,67.5,Teen 16-17,16-17,187.5,117.5,190,495,SBD,Single-ply,M,2
G. Hafner,67.5,Teen 16-17,16-17,180,122.5,190,492.5,SBD,Single-ply,M,3
R. Melquist,67.5,Teen 16-17,16-17,70,160,70,300,SBD,Single-ply,M,4
E. Blumberg,75,Teen 16-17,16-17,210,127.5,230,567.5,SBD,Single-ply,M,1
S. Fleming,75,Teen 16-17,16-17,207.5,117.5,225,550,SBD,Single-ply,M,2
J. Maston,75,Teen 16-17,16-17,215,120,192.5,527.5,SBD,Single-ply,M,3
M. Vamualis,75,Teen 16-17,16-17,172.5,102.5,200,475,SBD,Single-ply,M,4
M. Hulgan,82.5,Teen 16-17,16-17,240,182.5,227.5,650,SBD,Single-ply,M,1
M. Kinney,82.5,Teen 16-17,16-17,205,127.5,227.5,560,SBD,Single-ply,M,2
Garrett Taylor,82.5,Teen 16-17,16-17,202.5,140,215,557.5,SBD,Single-ply,M,3
J. Ciuffo,90,Teen 16-17,16-17,260,150,220,630,SBD,Single-ply,M,1
S. Hill #6,90,Teen 16-17,16-17,180,87.5,152.5,420,SBD,Single-ply,M,2
S. Pollock,100,Teen 16-17,16-17,272.5,175,265,712.5,SBD,Single-ply,M,1
S. Endievari,100,Teen 16-17,16-17,227.5,117.5,190,535,SBD,Single-ply,M,2
Joe McCray,110,Teen 16-17,16-17,250,157.5,215,622.5,SBD,Single-ply,M,1
G. Bennett,110,Teen 16-17,16-17,182.5,105,182.5,470,SBD,Single-ply,M,2
B. Pruett,125,Teen 16-17,16-17,255,182.5,237.5,675,SBD,Single-ply,M,1
Phillip Hile,52,Teen 18-19,18-19,180,120,200,500,SBD,Single-ply,M,1
Tim Muldoon,52,Teen 18-19,18-19,147.5,97.5,150,395,SBD,Single-ply,M,2
Randy Ruppel,52,Teen 18-19,18-19,117.5,92.5,167.5,377.5,SBD,Single-ply,M,3
Kenneth Whitley,56,Teen 18-19,18-19,175,105,192.5,472.5,SBD,Single-ply,M,1
M. McGuirk,56,Teen 18-19,18-19,132.5,92.5,170,395,SBD,Single-ply,M,2
Ricky Dillon,56,Teen 18-19,18-19,152.5,85,155,392.5,SBD,Single-ply,M,3
Michael Kimura,60,Teen 18-19,18-19,227.5,147.5,200,575,SBD,Single-ply,M,1
S. Suttles,60,Teen 18-19,18-19,162.5,130,227.5,520,SBD,Single-ply,M,2
T. Ickow,60,Teen 18-19,18-19,165,110,185,460,SBD,Single-ply,M,3
David Webb #1,60,Teen 18-19,18-19,117.5,67.5,137.5,322.5,SBD,Single-ply,M,4
Ray Benemerito,67.5,Teen 18-19,18-19,247.5,155,247.5,650,SBD,Single-ply,M,1
K. Holler,67.5,Teen 18-19,18-19,217.5,142.5,232.5,592.5,SBD,Single-ply,M,2
Greg Hynson,67.5,Teen 18-19,18-19,240,117.5,235,592.5,SBD,Single-ply,M,3
Kevin Sumner,67.5,Teen 18-19,18-19,217.5,130,215,562.5,SBD,Single-ply,M,4
V. Blanchard,75,Teen 18-19,18-19,242.5,162.5,245,650,SBD,Single-ply,M,1
L. Less,75,Teen 18-19,18-19,240,182.5,217.5,640,SBD,Single-ply,M,2
Richard Ferro,75,Teen 18-19,18-19,197.5,125,225,547.5,SBD,Single-ply,M,3
P. Fidopiatis,75,Teen 18-19,18-19,175,125,185,485,SBD,Single-ply,M,4
Rodney Whitehead,82.5,Teen 18-19,18-19,262.5,132.5,310,705,SBD,Single-ply,M,1
R. Bagley,82.5,Teen 18-19,18-19,260,170,260,690,SBD,Single-ply,M,2
K. Niemeyer,82.5,Teen 18-19,18-19,255,130,212.5,597.5,SBD,Single-ply,M,3
Carmen Perrotta,90,Teen 18-19,18-19,292.5,170,295,757.5,SBD,Single-ply,M,1
D. Wagner,90,Teen 18-19,18-19,265,177.5,272.5,715,SBD,Single-ply,M,2
D. West,90,Teen 18-19,18-19,245,175,252.5,672.5,SBD,Single-ply,M,3
Mike Endieveri,90,Teen 18-19,18-19,240,130,205,575,SBD,Single-ply,M,4
Allen Wentworth,100,Teen 18-19,18-19,310,207.5,300,817.5,SBD,Single-ply,M,1
K. Like,100,Teen 18-19,18-19,290,200,282.5,772.5,SBD,Single-ply,M,2
Wes Littlefield,100,Teen 18-19,18-19,290,195,260,745,SBD,Single-ply,M,3
R. Mitchell,100,Teen 18-19,18-19,292.5,175,260,727.5,SBD,Single-ply,M,4
D. Grau,100,Teen 18-19,18-19,267.5,172.5,272.5,712.5,SBD,Single-ply,M,5
D. Walden,100,Teen 18-19,18-19,240,190,272.5,702.5,SBD,Single-ply,M,6
Bob Pinchoff,100,Teen 18-19,18-19,255,170,257.5,682.5,SBD,Single-ply,M,7
M. Anderson #16,100,Teen 18-19,18-19,242.5,157.5,250,650,SBD,Single-ply,M,8
Steve Rodenberg,100,Teen 18-19,18-19,227.5,155,237.5,620,SBD,Single-ply,M,9
Kirk Karwoski,110,Teen 18-19,18-19,342.5,187.5,300,830,SBD,Single-ply,M,1
Al Tanner,110,Teen 18-19,18-19,245,150,245,640,SBD,Single-ply,M,2
Anthony Clark #1,125+,Teen 18-19,18-19,320,277.5,282.5,880,SBD,Single-ply,M,1
John Ketchum,125+,Teen 18-19,18-19,332.5,190,317.5,840,SBD,Single-ply,M,2
